timestamp,LIDAR12m_WdSpdHor_Avg,LIDAR12m_WdDir_Avg
28-09-2023 00:00,7.0118,69.2721
28-09-2023 01:00,6.8103,70.8426
28-09-2023 02:00,6.7772,65.1399
28-09-2023 03:00,6.117,76.7899
28-09-2023 04:00,5.4396,78.6064
28-09-2023 05:00,3.3337,92.0832
28-09-2023 06:00,3.1415,70.4247
28-09-2023 07:00,1.6824,122.2661
28-09-2023 08:00,1.4866,98.917
28-09-2023 09:00,2.4015,75.0008
28-09-2023 10:00,1.7928,95.8464
28-09-2023 11:00,2.1634,126.2396
28-09-2023 12:00,3.2625,99.9985
28-09-2023 13:00,1.7772,134.4786
28-09-2023 14:00,3.5952,97.1398
28-09-2023 15:00,4.3889,117.341
28-09-2023 16:00,2.995,118.2588
28-09-2023 17:00,2.3946,102.5821
28-09-2023 18:00,4.1199,92.9641
28-09-2023 19:00,5.926,91.0749
28-09-2023 20:00,6.8465,76.6504
28-09-2023 21:00,7.5351,79.2573
28-09-2023 22:00,7.3672,83.102
28-09-2023 23:00,8.6947,84.6735
29-09-2023 00:00,7.9114,85.0114
29-09-2023 01:00,7.9386,97.1548
29-09-2023 02:00,7.8125,89.0328
29-09-2023 03:00,7.1974,89.7763
29-09-2023 04:00,6.538,95.2509
29-09-2023 05:00,6.0324,99.9273
29-09-2023 06:00,5.1984,98.0174
29-09-2023 07:00,6.1524,105.3311
29-09-2023 08:00,6.3832,111.0091
29-09-2023 09:00,4.5116,114.511
29-09-2023 10:00,7.3452,94.7467
29-09-2023 11:00,6.6754,104.9838
29-09-2023 12:00,5.2774,105.1039
29-09-2023 13:00,4.3596,110.7207
29-09-2023 14:00,5.4004,106.4626
29-09-2023 15:00,5.1496,101.609
29-09-2023 16:00,5.9764,98.5316
29-09-2023 17:00,5.7464,96.1649
29-09-2023 18:00,3.7036,122.5345
29-09-2023 19:00,5.9512,98.1357
29-09-2023 20:00,5.5294,91.8987
29-09-2023 21:00,5.8498,81.9534
29-09-2023 22:00,5.4342,69.8494
29-09-2023 23:00,6.1177,74.3685
30-09-2023 00:00,5.9223,78.805
30-09-2023 01:00,5.9837,90.2494
30-09-2023 02:00,6.7534,93.1795
30-09-2023 03:00,7.2958,96.4883
30-09-2023 04:00,6.6114,90.5411
30-09-2023 05:00,5.8079,90.8917
30-09-2023 06:00,5.2209,95.6925
30-09-2023 07:00,5.5781,90.8215
30-09-2023 08:00,5.9475,90.1484
30-09-2023 09:00,4.949,97.2997
30-09-2023 10:00,5.5889,90.5959
30-09-2023 11:00,5.9028,90.1266
30-09-2023 12:00,5.3039,88.2877
30-09-2023 13:00,5.3472,94.9034
30-09-2023 14:00,6.5539,94.5341
30-09-2023 15:00,6.4013,98.9456
30-09-2023 16:00,7.0828,99.1349
30-09-2023 17:00,5.9236,95.7289
30-09-2023 18:00,6.2548,95.5669
30-09-2023 19:00,6.6706,86.8584
30-09-2023 20:00,6.5946,86.3879
30-09-2023 21:00,6.2934,74.7451
30-09-2023 22:00,6.9361,75.2925
30-09-2023 23:00,6.1574,71.9278
01-10-2023 00:00,6.3542,79.6342
01-10-2023 01:00,6.1915,89.2523
01-10-2023 02:00,6.0036,97.2097
01-10-2023 03:00,5.435,102.4588
01-10-2023 04:00,5.7183,101.8341
01-10-2023 05:00,5.2943,96.3386
01-10-2023 06:00,5.5632,89.9853
01-10-2023 07:00,5.6914,85.4757
01-10-2023 08:00,4.2841,96.8426
01-10-2023 09:00,4.7567,84.8227
01-10-2023 10:00,3.6525,97.6143
01-10-2023 11:00,3.7323,85.2952
01-10-2023 12:00,4.5499,80.6959
01-10-2023 13:00,5.6212,69.884
01-10-2023 14:00,5.5096,85.4291
01-10-2023 15:00,4.2874,88.154
01-10-2023 16:00,4.0438,94.6086
01-10-2023 17:00,3.6771,69.5124
01-10-2023 18:00,4.7785,65.2083
01-10-2023 19:00,3.8932,55.0859
01-10-2023 20:00,4.7627,49.7872
01-10-2023 21:00,5.1461,55.5174
01-10-2023 22:00,5.3972,63.4708
01-10-2023 23:00,4.8328,75.2674
02-10-2023 00:00,5.0338,62.5091
02-10-2023 01:00,3.9758,74.0783
02-10-2023 02:00,2.8285,65.7229
02-10-2023 03:00,3.418,74.7011
02-10-2023 04:00,3.3377,87.645
02-10-2023 05:00,2.9987,92.2315
02-10-2023 06:00,2.2261,86.4823
02-10-2023 07:00,1.7653,83.5539
02-10-2023 08:00,2.001,108.922
02-10-2023 09:00,2.0475,99.2372
02-10-2023 10:00,1.1435,110.9242
02-10-2023 11:00,1.9965,166.5648
02-10-2023 12:00,1.8637,138.6407
02-10-2023 13:00,2.1163,120.6055
02-10-2023 14:00,2.1514,130.4463
02-10-2023 15:00,2.5511,120.6432
02-10-2023 16:00,2.9832,127.6112
02-10-2023 17:00,3.008,125.702
02-10-2023 18:00,3.0066,113.9573
02-10-2023 19:00,2.3505,96.2798
02-10-2023 20:00,2.9722,77.8686
02-10-2023 21:00,2.8842,61.1333
02-10-2023 22:00,3.588,50.2163
02-10-2023 23:00,3.8976,48.162
03-10-2023 00:00,4.2554,45.517
03-10-2023 01:00,3.4984,56.381
03-10-2023 02:00,3.3928,64.942
03-10-2023 03:00,2.3023,65.8049
03-10-2023 04:00,3.377,49.581
03-10-2023 05:00,3.2565,62.3349
03-10-2023 06:00,3.2728,65.3428
03-10-2023 07:00,3.5283,64.8317
03-10-2023 08:00,2.6576,65.5255
03-10-2023 09:00,3.6052,78.9201
03-10-2023 10:00,3.9311,114.204
03-10-2023 11:00,3.9445,102.6311
03-10-2023 12:00,3.6686,99.038
03-10-2023 13:00,4.3652,116.8045
03-10-2023 14:00,4.4693,121.5343
03-10-2023 15:00,4.1272,143.0856
03-10-2023 16:00,3.3328,142.1899
03-10-2023 17:00,3.298,105.2724
03-10-2023 18:00,3.4748,88.6967
03-10-2023 19:00,3.7118,88.4562
03-10-2023 20:00,4.4642,48.0291
03-10-2023 21:00,4.6919,39.0574
03-10-2023 22:00,4.232,29.5716
03-10-2023 23:00,4.9221,32.4895
04-10-2023 00:00,4.4559,31.096
04-10-2023 01:00,4.1933,35.7251
04-10-2023 02:00,3.1084,37.0838
04-10-2023 03:00,3.4941,38.6738
04-10-2023 04:00,3.5105,59.2693
04-10-2023 05:00,4.7736,81.075
04-10-2023 06:00,3.2888,131.0047
04-10-2023 07:00,3.3735,106.2786
04-10-2023 08:00,4.261,162.9893
04-10-2023 09:00,1.7329,183.4455
04-10-2023 10:00,1.5314,205.8276
04-10-2023 11:00,0.966,209.3064
04-10-2023 12:00,1.3148,247.4629
04-10-2023 13:00,1.4086,243.4535
04-10-2023 14:00,3.1143,205.7437
04-10-2023 15:00,2.3078,225.2856
04-10-2023 16:00,4.1603,245.7281
04-10-2023 17:00,3.5022,256.7562
04-10-2023 18:00,4.5323,272.2833
04-10-2023 19:00,3.2717,247.0138
04-10-2023 20:00,2.2968,312.8783
04-10-2023 21:00,2.1339,323.326
04-10-2023 22:00,3.8634,318.8364
04-10-2023 23:00,3.7541,314.1738
05-10-2023 00:00,2.993,325.4711
05-10-2023 01:00,3.0751,330.4567
05-10-2023 02:00,2.5185,303.9052
05-10-2023 03:00,2.0564,290.6099
05-10-2023 04:00,0.9541,212.8835
05-10-2023 05:00,2.5244,295.622
05-10-2023 06:00,1.8075,281.4181
05-10-2023 07:00,5.806,230.9602
05-10-2023 08:00,6.7624,350.067
05-10-2023 09:00,5.4429,25.5147
05-10-2023 10:00,1.1824,14.9949
05-10-2023 11:00,2.8888,46.1444
05-10-2023 12:00,2.4316,37.0644
05-10-2023 13:00,1.9292,340.8667
05-10-2023 14:00,1.6225,23.5114
05-10-2023 15:00,2.3812,57.6568
05-10-2023 16:00,1.7579,64.0782
05-10-2023 17:00,0.8755,74.7606
05-10-2023 18:00,0.8405,185.0945
05-10-2023 19:00,1.5617,118.3445
05-10-2023 20:00,2.3963,141.5419
05-10-2023 21:00,1.2366,68.2682
05-10-2023 22:00,1.8507,348.4988
05-10-2023 23:00,2.2899,352.1487
06-10-2023 00:00,3.0064,27.9061
06-10-2023 01:00,1.7781,24.5327
06-10-2023 02:00,2.7062,91.5688
06-10-2023 03:00,3.3769,81.4922
06-10-2023 04:00,3.4221,71.0982
06-10-2023 05:00,3.9209,71.0948
06-10-2023 06:00,4.3559,84.5758
06-10-2023 07:00,3.0752,71.581
06-10-2023 08:00,4.5748,95.717
06-10-2023 09:00,4.2865,101.7707
06-10-2023 10:00,4.4727,129.6028
06-10-2023 11:00,5.0379,135.8868
06-10-2023 12:00,3.847,134.4403
06-10-2023 13:00,4.714,150.8026
06-10-2023 14:00,5.1749,170.8129
06-10-2023 15:00,3.2604,171.9788
06-10-2023 16:00,2.3148,161.2547
06-10-2023 17:00,1.1999,236.7404
06-10-2023 18:00,1.7006,52.5086
06-10-2023 19:00,2.7761,37.5002
06-10-2023 20:00,4.2677,45.2801
06-10-2023 21:00,5.2353,39.2616
06-10-2023 22:00,5.5618,43.5309
06-10-2023 23:00,5.8718,47.2274
07-10-2023 00:00,5.1968,43.7239
07-10-2023 01:00,5.3013,64.9281
07-10-2023 02:00,5.9824,69.7981
07-10-2023 03:00,6.2193,75.1326
07-10-2023 04:00,5.474,72.6542
07-10-2023 05:00,4.915,83.3031
07-10-2023 06:00,4.9218,81.3301
07-10-2023 07:00,5.0981,78.9452
07-10-2023 08:00,4.4751,68.9879
07-10-2023 09:00,3.5788,83.0086
07-10-2023 10:00,3.2434,122.2494
07-10-2023 11:00,3.7472,133.1735
07-10-2023 12:00,3.403,139.3828
07-10-2023 13:00,1.7474,41.1928
07-10-2023 14:00,1.2772,45.0512
07-10-2023 15:00,1.4202,95.8863
07-10-2023 16:00,6.5271,110.7201
07-10-2023 17:00,4.9461,101.5636
07-10-2023 18:00,5.2729,98.275
07-10-2023 19:00,5.8357,86.0423
07-10-2023 20:00,1.8326,102.8943
07-10-2023 21:00,5.2945,73.4287
07-10-2023 22:00,7.3506,91.5031
07-10-2023 23:00,6.2391,112.4453
08-10-2023 00:00,7.6333,111.8588
08-10-2023 01:00,7.4754,113.8624
08-10-2023 02:00,6.3092,70.5628
08-10-2023 03:00,5.5096,117.3883
08-10-2023 04:00,5.6623,48.9418
08-10-2023 05:00,7.3926,102.3185
08-10-2023 06:00,7.3897,107.1015
08-10-2023 07:00,6.9904,119.9861
08-10-2023 08:00,7.9933,114.1025
08-10-2023 09:00,7.561,112.3782
08-10-2023 10:00,8.2712,106.7836
08-10-2023 11:00,8.928,108.567
08-10-2023 12:00,9.1787,101.6737
08-10-2023 13:00,8.515,110.1928
08-10-2023 14:00,9.0324,112.4471
08-10-2023 15:00,8.069,121.1303
08-10-2023 16:00,8.4419,116.4999
08-10-2023 17:00,9.6196,119.2644
08-10-2023 18:00,8.604,110.6399
08-10-2023 19:00,9.2985,97.693
08-10-2023 20:00,9.1759,182.7418
08-10-2023 21:00,9.1599,108.3066
08-10-2023 22:00,9.1401,72.6
08-10-2023 23:00,9.4442,108.8473
09-10-2023 00:00,9.1302,105.7196
09-10-2023 01:00,8.9522,78.8816
09-10-2023 02:00,10.2541,91.5701
09-10-2023 03:00,7.6624,125.8824
09-10-2023 04:00,6.084,128.5431
09-10-2023 05:00,5.9435,132.4812
09-10-2023 06:00,8.0284,113.2857
09-10-2023 07:00,8.0547,117.5143
09-10-2023 08:00,7.9576,108.6838
09-10-2023 09:00,9.6705,110.5934
09-10-2023 10:00,10.1713,110.2496
09-10-2023 11:00,11.2254,39.1259
09-10-2023 12:00,10.2872,114.0601
09-10-2023 13:00,10.0878,112.5368
09-10-2023 14:00,9.5677,63.4146
09-10-2023 15:00,9.2541,108.4524
09-10-2023 16:00,7.9806,122.5647
09-10-2023 17:00,7.8534,102.6135
09-10-2023 18:00,8.3657,102.4594
09-10-2023 19:00,7.5835,104.2838
09-10-2023 20:00,8.2427,96.6938
09-10-2023 21:00,9.0759,86.0721
09-10-2023 22:00,8.767,87.9462
09-10-2023 23:00,9.5122,81.1855
10-10-2023 00:00,9.5995,87.6175
10-10-2023 01:00,9.9043,94.9236
10-10-2023 02:00,10.0351,100.8469
10-10-2023 03:00,8.9316,101.4485
10-10-2023 04:00,9.1442,100.3541
10-10-2023 05:00,9.1826,99.1772
10-10-2023 06:00,9.3085,99.1734
10-10-2023 07:00,9.0578,94.3437
10-10-2023 08:00,10.0911,96.6446
10-10-2023 09:00,9.2104,101.6577
10-10-2023 10:00,9.99,100.3813
10-10-2023 11:00,10.1408,98.2939
10-10-2023 12:00,10.9268,101.9061
10-10-2023 13:00,11.2912,99.685
10-10-2023 14:00,11.0741,99.2785
10-10-2023 15:00,11.0504,99.2607
10-10-2023 16:00,10.8092,96.3661
10-10-2023 17:00,10.8301,93.983
10-10-2023 18:00,10.956,97.5271
10-10-2023 19:00,9.3342,96.336
10-10-2023 20:00,10.078,92.4213
10-10-2023 21:00,10.8163,84.2972
10-10-2023 22:00,10.4262,85.9237
10-10-2023 23:00,11.905,93.0699
11-10-2023 00:00,12.7808,85.7071
11-10-2023 01:00,12.0929,83.6152
11-10-2023 02:00,11.416,93.5391
11-10-2023 03:00,10.9766,99.4097
11-10-2023 04:00,11.9082,100.7324
11-10-2023 05:00,11.4471,107.3865
11-10-2023 06:00,11.7967,107.0048
11-10-2023 07:00,10.5645,93.127
11-10-2023 08:00,9.3286,95.8885
11-10-2023 09:00,9.086,94.5146
11-10-2023 10:00,10.3032,92.7038
11-10-2023 11:00,9.848,93.1495
11-10-2023 12:00,9.7479,93.0846
11-10-2023 13:00,9.0063,94.4807
11-10-2023 14:00,10.3617,95.2541
11-10-2023 15:00,10.0901,92.5439
11-10-2023 16:00,9.7278,93.7327
11-10-2023 17:00,9.9241,90.8002
11-10-2023 18:00,8.7608,88.3092
11-10-2023 19:00,9.5331,95.2453
11-10-2023 20:00,9.8993,91.257
11-10-2023 21:00,10.4492,88.7256
11-10-2023 22:00,10.2633,86.6839
11-10-2023 23:00,10.8684,94.4441
12-10-2023 00:00,10.2133,96.3961
12-10-2023 01:00,10.5043,106.6166
12-10-2023 02:00,11.2817,108.325
12-10-2023 03:00,11.2096,107.3216
12-10-2023 04:00,11.0268,111.7546
12-10-2023 05:00,10.4102,109.6618
12-10-2023 06:00,9.5437,113.6052
12-10-2023 07:00,10.2511,103.0275
12-10-2023 08:00,10.4429,107.403
12-10-2023 09:00,9.601,101.1566
12-10-2023 10:00,10.5808,89.3767
12-10-2023 11:00,10.605,90.2746
12-10-2023 12:00,10.228,100.0595
12-10-2023 13:00,10.3464,102.7862
12-10-2023 14:00,9.8527,102.5515
12-10-2023 15:00,10.7973,194.1469
12-10-2023 16:00,10.2743,97.5711
12-10-2023 17:00,10.1416,93.6616
12-10-2023 18:00,9.2188,125.419
12-10-2023 19:00,10.0386,92.331
12-10-2023 20:00,9.3063,99.0608
12-10-2023 21:00,9.5063,79.1606
12-10-2023 22:00,8.885,91.2875
12-10-2023 23:00,9.5741,91.6833
13-10-2023 00:00,8.9986,97.0709
13-10-2023 01:00,9.2105,103.4714
13-10-2023 02:00,9.8567,106.6222
13-10-2023 03:00,9.0459,96.2298
13-10-2023 04:00,8.7318,99.8966
13-10-2023 05:00,7.496,105.3266
13-10-2023 06:00,7.5399,111.8917
13-10-2023 07:00,7.4634,54.4197
13-10-2023 08:00,8.0338,107.152
13-10-2023 09:00,8.6916,105.8605
13-10-2023 10:00,8.6616,131.5633
13-10-2023 11:00,8.4482,100.2
13-10-2023 12:00,7.8577,103.8035
13-10-2023 13:00,7.8705,111.4281
13-10-2023 14:00,8.4394,105.7328
13-10-2023 15:00,7.9177,107.3694
13-10-2023 16:00,7.9494,89.6494
13-10-2023 17:00,8.0879,88.4453
13-10-2023 18:00,8.0825,88.0724
13-10-2023 19:00,8.1976,89.1894
13-10-2023 20:00,8.5254,83.6353
13-10-2023 21:00,8.7327,78.5675
13-10-2023 22:00,9.1558,74.9288
13-10-2023 23:00,9.0868,75.0558
14-10-2023 00:00,8.467,74.4659
14-10-2023 01:00,8.1058,84.7998
14-10-2023 02:00,8.4012,100.2469
14-10-2023 03:00,8.2297,94.3201
14-10-2023 04:00,8.4099,97.0928
14-10-2023 05:00,8.4423,102.5278
14-10-2023 06:00,8.4876,107.7336
14-10-2023 07:00,8.2345,105.9374
14-10-2023 08:00,7.6568,101.4031
14-10-2023 09:00,7.1925,89.4024
14-10-2023 10:00,6.9672,92.071
14-10-2023 11:00,8.2058,89.4386
14-10-2023 12:00,8.0667,100.5658
14-10-2023 13:00,6.7651,97.4405
14-10-2023 14:00,6.7717,105.6851
14-10-2023 15:00,6.521,85.8403
14-10-2023 16:00,6.3656,89.6217
14-10-2023 17:00,6.4557,81.8126
14-10-2023 18:00,7.4215,81.2105
14-10-2023 19:00,8.1336,72.7653
14-10-2023 20:00,8.3374,77.411
14-10-2023 21:00,7.3208,80.0253
14-10-2023 22:00,7.5273,68.7438
14-10-2023 23:00,7.831,84.7654
15-10-2023 00:00,7.7879,28.965
15-10-2023 01:00,6.6358,89.7965
15-10-2023 02:00,7.286,85.7941
15-10-2023 03:00,7.8415,101.4008
15-10-2023 04:00,7.5753,93.1373
15-10-2023 05:00,7.0377,96.9055
15-10-2023 06:00,6.7181,94.4853
15-10-2023 07:00,6.8443,90.8022
15-10-2023 08:00,6.4562,91.6571
15-10-2023 09:00,6.1728,88.0565
15-10-2023 10:00,7.4026,93.7961
15-10-2023 11:00,6.7197,92.1716
15-10-2023 12:00,5.7784,100.3982
15-10-2023 13:00,6.2209,107.5969
15-10-2023 14:00,7.2079,120.5628
15-10-2023 15:00,6.9089,110.5735
15-10-2023 16:00,6.881,121.488
15-10-2023 17:00,5.8572,119.8968
15-10-2023 18:00,7.2519,102.6841
15-10-2023 19:00,7.0118,96.322
15-10-2023 20:00,5.6707,88.4224
15-10-2023 21:00,7.2891,80.0872
15-10-2023 22:00,7.5545,67.9101
15-10-2023 23:00,7.8667,78.3358
16-10-2023 00:00,7.5269,80.8711
16-10-2023 01:00,8.0679,81.2612
16-10-2023 02:00,8.1691,92.5573
16-10-2023 03:00,8.0317,99.0556
16-10-2023 04:00,7.3761,93.5846
16-10-2023 05:00,7.3946,94.4868
16-10-2023 06:00,7.2687,86.154
16-10-2023 07:00,7.1885,90.4508
16-10-2023 08:00,7.5564,155.5207
16-10-2023 09:00,7.5835,82.4558
16-10-2023 10:00,13.8428,136.8648
16-10-2023 11:00,5.3849,59.0864
16-10-2023 12:00,3.5322,109.261
16-10-2023 13:00,4.2166,138.1601
16-10-2023 14:00,7.2996,105.7705
16-10-2023 15:00,3.3704,110.4864
16-10-2023 16:00,2.0189,74.6582
16-10-2023 17:00,2.5483,57.6743
16-10-2023 18:00,2.0371,54.7764
16-10-2023 19:00,4.0761,86.0658
16-10-2023 20:00,6.6416,77.3841
16-10-2023 21:00,6.5746,73.4498
16-10-2023 22:00,6.6004,72.2684
16-10-2023 23:00,6.4548,76.8846
17-10-2023 00:00,7.0237,81.4
17-10-2023 01:00,7.4932,91.722
17-10-2023 02:00,7.9602,96.6768
17-10-2023 03:00,7.99,94.5817
17-10-2023 04:00,9.0853,90.9808
17-10-2023 05:00,9.088,97.9576
17-10-2023 06:00,8.9676,104.1165
17-10-2023 07:00,8.8172,99.918
17-10-2023 08:00,8.4733,104.3624
17-10-2023 09:00,8.0682,101.3609
17-10-2023 10:00,8.3434,108.2428
17-10-2023 11:00,7.6985,119.5708
17-10-2023 12:00,8.7437,107.1518
17-10-2023 13:00,8.2848,107.1685
17-10-2023 14:00,8.4371,105.234
17-10-2023 15:00,8.9741,105.5392
17-10-2023 16:00,8.7331,111.7844
17-10-2023 17:00,8.3245,110.3666
17-10-2023 18:00,7.5692,110.896
17-10-2023 19:00,7.8195,98.0398
17-10-2023 20:00,7.7051,95.1536
17-10-2023 21:00,8.3825,81.9502
17-10-2023 22:00,9.5335,78.1866
17-10-2023 23:00,9.5483,74.7526
18-10-2023 00:00,10.2369,78.4029
18-10-2023 01:00,10.0825,88.368
18-10-2023 02:00,10.3939,91.554
18-10-2023 03:00,11.1309,94.9635
18-10-2023 04:00,10.2725,103.0911
18-10-2023 05:00,11.3283,107.5309
18-10-2023 06:00,10.1182,86.7383
18-10-2023 07:00,10.2074,45.4348
18-10-2023 08:00,9.7957,40.5527
18-10-2023 09:00,11.4204,110.9748
18-10-2023 10:00,10.769,111.2187
18-10-2023 11:00,10.7783,112.1247
18-10-2023 12:00,10.564,105.862
18-10-2023 13:00,11.3477,101.4834
18-10-2023 14:00,9.8829,102.4377
18-10-2023 15:00,10.8558,104.7882
18-10-2023 16:00,10.5948,102.4623
18-10-2023 17:00,10.7109,107.8996
18-10-2023 18:00,9.9386,101.8104
18-10-2023 19:00,10.0662,101.7237
18-10-2023 20:00,9.9233,97.3315
18-10-2023 21:00,9.1162,92.9059
18-10-2023 22:00,9.9435,80.8738
18-10-2023 23:00,9.5218,76.7571
19-10-2023 00:00,10.1803,76.9712
19-10-2023 01:00,8.8356,81.9066
19-10-2023 02:00,8.7164,91.3497
19-10-2023 03:00,9.5167,88.8353
19-10-2023 04:00,10.2798,93.1153
19-10-2023 05:00,9.9938,95.2038
19-10-2023 06:00,9.9655,97.3291
19-10-2023 07:00,9.8738,92.2715
19-10-2023 08:00,9.2323,96.6273
19-10-2023 09:00,10.951,95.8793
19-10-2023 10:00,10.085,96.6693
19-10-2023 11:00,11.4582,106.1896
19-10-2023 12:00,11.1833,99.7224
19-10-2023 13:00,12.1209,108.3621
19-10-2023 14:00,12.3508,125.4558
19-10-2023 15:00,11.4467,106.5552
19-10-2023 16:00,10.2291,93.974
19-10-2023 17:00,9.3702,102.5529
19-10-2023 18:00,9.3947,97.6673
19-10-2023 19:00,8.7756,88.2289
19-10-2023 20:00,9.7598,82.147
19-10-2023 21:00,10.2341,76.6186
19-10-2023 22:00,11.1031,69.456
19-10-2023 23:00,10.9126,76.4603
20-10-2023 00:00,11.2273,12.5123
20-10-2023 01:00,11.4712,79.4606
20-10-2023 02:00,10.6977,88.4724
20-10-2023 03:00,10.725,84.34
20-10-2023 04:00,10.8237,102.4766
20-10-2023 05:00,9.4177,141.749
20-10-2023 06:00,6.1997,114.1056
20-10-2023 07:00,6.0049,127.9227
20-10-2023 08:00,4.6513,123.2027
20-10-2023 09:00,8.8777,91.2574
20-10-2023 10:00,8.4104,106.1202
20-10-2023 11:00,8.7181,98.8864
20-10-2023 12:00,8.4119,100.5843
20-10-2023 13:00,8.1768,104.9073
20-10-2023 14:00,8.1995,110.72
20-10-2023 15:00,7.0875,107.3961
20-10-2023 16:00,7.5874,100.8671
20-10-2023 17:00,7.8044,95.8013
20-10-2023 18:00,7.2695,92.6021
20-10-2023 19:00,7.5021,98.0841
20-10-2023 20:00,7.3339,90.318
20-10-2023 21:00,6.0657,96.7517
20-10-2023 22:00,6.1479,82.5928
20-10-2023 23:00,5.3914,74.7863
21-10-2023 00:00,7.0812,78.9478
21-10-2023 01:00,7.5188,83.8045
21-10-2023 02:00,6.8884,83.0282
21-10-2023 03:00,7.126,89.2626
21-10-2023 04:00,7.0835,103.994
21-10-2023 05:00,6.3925,104.7543
21-10-2023 06:00,6.5022,102.2498
21-10-2023 07:00,4.8527,132.8746
21-10-2023 08:00,6.6059,98.9943
21-10-2023 09:00,14.3554,292.8864
21-10-2023 10:00,4.7848,294.1662
21-10-2023 11:00,3.9928,346.9471
21-10-2023 12:00,2.8006,34.2411
21-10-2023 13:00,3.5619,53.2471
21-10-2023 14:00,2.8428,69.2263
21-10-2023 15:00,3.3477,151.6868
21-10-2023 16:00,4.4463,231.2007
21-10-2023 17:00,3.4604,195.059
21-10-2023 18:00,2.3961,223.4647
21-10-2023 19:00,3.3762,302.5347
21-10-2023 20:00,2.0151,286.9741
21-10-2023 21:00,1.7302,301.917
21-10-2023 22:00,2.1817,301.641
21-10-2023 23:00,4.0659,305.5687
22-10-2023 00:00,3.5993,318.8421
22-10-2023 01:00,3.8003,329.2086
22-10-2023 02:00,3.0427,338.2677
22-10-2023 03:00,3.3897,351.9502
22-10-2023 04:00,2.9668,357.37
22-10-2023 05:00,2.8653,28.4419
22-10-2023 06:00,1.7399,15.3164
22-10-2023 07:00,1.3245,108.8077
22-10-2023 08:00,2.295,167.3124
22-10-2023 09:00,2.4986,258.9939
22-10-2023 10:00,1.1384,207.6888
22-10-2023 11:00,1.5897,205.3587
22-10-2023 12:00,1.3962,146.3342
22-10-2023 13:00,1.6174,166.5941
22-10-2023 14:00,1.5723,170.2596
22-10-2023 15:00,1.7928,170.2394
22-10-2023 16:00,1.7531,167.0401
22-10-2023 17:00,0.9356,132.5029
22-10-2023 18:00,1.2177,107.9146
22-10-2023 19:00,1.6407,39.5877
22-10-2023 20:00,1.2965,69.447
22-10-2023 21:00,1.6897,86.2858
22-10-2023 22:00,1.3255,47.0338
22-10-2023 23:00,1.3498,81.4579
23-10-2023 00:00,2.1559,71.5633
23-10-2023 01:00,3.0913,65.5023
23-10-2023 02:00,2.8795,78.569
23-10-2023 03:00,2.8756,88.3064
23-10-2023 04:00,3.0723,92.5308
23-10-2023 05:00,2.9675,91.7559
23-10-2023 06:00,2.5476,122.7894
23-10-2023 07:00,1.6799,131.4059
23-10-2023 08:00,1.2651,134.6517
23-10-2023 09:00,1.7157,123.4655
23-10-2023 10:00,1.8823,126.0031
23-10-2023 11:00,2.0317,97.6061
23-10-2023 12:00,2.948,105.5079
23-10-2023 13:00,2.7705,111.5558
23-10-2023 14:00,3.4963,86.5782
23-10-2023 15:00,4.3283,89.2942
23-10-2023 16:00,4.8384,91.8924
23-10-2023 17:00,5.2739,98.826
23-10-2023 18:00,5.5638,93.8802
23-10-2023 19:00,6.1383,94.093
23-10-2023 20:00,5.4673,88.0452
23-10-2023 21:00,6.6219,81.3512
23-10-2023 22:00,6.8086,71.7668
23-10-2023 23:00,6.701,73.0545
24-10-2023 00:00,6.3247,65.0593
24-10-2023 01:00,6.756,64.4697
24-10-2023 02:00,6.1307,66.504
24-10-2023 03:00,5.7756,71.7648
24-10-2023 04:00,5.6404,75.6822
24-10-2023 05:00,5.5344,88.0096
24-10-2023 06:00,5.9765,83.9391
24-10-2023 07:00,6.4878,88.1836
24-10-2023 08:00,6.0127,84.4646
24-10-2023 09:00,5.7121,88.6023
24-10-2023 10:00,5.8379,86.144
24-10-2023 11:00,5.0191,83.8376
24-10-2023 12:00,4.5001,82.3618
24-10-2023 13:00,5.2736,95.1392
24-10-2023 14:00,4.0228,89.6744
24-10-2023 15:00,5.4227,82.6791
24-10-2023 16:00,6.264,86.0707
24-10-2023 17:00,5.9608,82.6781
24-10-2023 18:00,6.7554,68.5796
24-10-2023 19:00,6.1117,75.4751
24-10-2023 20:00,6.6503,66.0428
24-10-2023 21:00,6.9736,61.07
24-10-2023 22:00,6.923,62.4545
24-10-2023 23:00,7.0791,61.8699
25-10-2023 00:00,6.7678,61.8427
25-10-2023 01:00,7.3206,70.8608
25-10-2023 02:00,7.1027,69.9249
25-10-2023 03:00,7.469,95.5521
25-10-2023 04:00,7.0891,93.7317
25-10-2023 05:00,6.3387,92.6686
25-10-2023 06:00,5.4631,93.8511
25-10-2023 07:00,5.418,79.728
25-10-2023 08:00,6.0107,88.2313
25-10-2023 09:00,5.7418,102.2087
25-10-2023 10:00,6.1891,121.3298
25-10-2023 11:00,5.3568,110.5699
25-10-2023 12:00,6.7182,103.1091
25-10-2023 13:00,5.5362,108.5911
25-10-2023 14:00,5.2142,126.7066
25-10-2023 15:00,5.2732,114.8618
25-10-2023 16:00,4.4431,105.0471
25-10-2023 17:00,4.6029,102.545
25-10-2023 18:00,5.4928,82.302
25-10-2023 19:00,3.9047,43.5001
25-10-2023 20:00,4.2095,76.3874
25-10-2023 21:00,5.3396,78.429
25-10-2023 22:00,4.5648,83.7512
25-10-2023 23:00,4.7146,94.5594
26-10-2023 00:00,3.8138,89.4616
26-10-2023 01:00,4.7079,15.4802
26-10-2023 02:00,3.0454,35.3817
26-10-2023 03:00,1.8598,76.1587
26-10-2023 04:00,8.9695,58.8442
26-10-2023 05:00,2.505,28.1072
26-10-2023 06:00,1.5222,234.347
26-10-2023 07:00,2.2412,225.4194
26-10-2023 08:00,2.1914,240.9653
26-10-2023 09:00,1.5743,157.3064
26-10-2023 10:00,2.2242,173.9157
26-10-2023 11:00,5.101,179.4631
26-10-2023 12:00,7.0033,170.1499
26-10-2023 13:00,6.405,171.9845
26-10-2023 14:00,5.7187,176.0765
26-10-2023 15:00,2.9712,201.9031
26-10-2023 16:00,1.5819,325.6671
26-10-2023 17:00,3.9771,347.2577
26-10-2023 18:00,8.4581,357.3909
26-10-2023 19:00,8.5347,29.4268
26-10-2023 20:00,6.1482,54.4484
26-10-2023 21:00,5.7596,98.4845
26-10-2023 22:00,2.3813,48.9562
26-10-2023 23:00,4.4573,46.758
27-10-2023 00:00,2.497,74.5622
27-10-2023 01:00,1.48,76.8489
27-10-2023 02:00,3.0452,68.8626
27-10-2023 03:00,2.0472,40.4975
27-10-2023 04:00,1.5813,72.5402
27-10-2023 05:00,2.4836,114.9271
27-10-2023 06:00,1.884,134.1952
27-10-2023 07:00,1.564,120.7436
27-10-2023 08:00,1.0426,73.2313
27-10-2023 09:00,0.9168,350.4582
27-10-2023 10:00,0.9941,62.6575
27-10-2023 11:00,2.5119,147.4064
27-10-2023 12:00,3.6041,102.8518
27-10-2023 13:00,1.0859,191.9382
27-10-2023 14:00,1.5894,125.7424
27-10-2023 15:00,1.2933,30.8836
27-10-2023 16:00,1.3248,36.7051
27-10-2023 17:00,0.9626,241.7054
27-10-2023 18:00,2.2754,187.2777
27-10-2023 19:00,4.1183,126.7274
27-10-2023 20:00,1.7369,178.1443
27-10-2023 21:00,0.7575,229.9378
27-10-2023 22:00,1.2334,290.6429
27-10-2023 23:00,8.6658,39.7175
28-10-2023 00:00,2.3589,21.7024
28-10-2023 01:00,1.8862,6.3418
28-10-2023 02:00,0.9196,279.7281
28-10-2023 03:00,2.0879,232.4489
28-10-2023 04:00,1.5748,195.5738
28-10-2023 05:00,2.3747,218.84
28-10-2023 06:00,1.145,217.8219
28-10-2023 07:00,2.4262,184.6409
28-10-2023 08:00,3.5248,220.1496
28-10-2023 09:00,4.5565,207.0155
28-10-2023 10:00,4.7155,211.628
28-10-2023 11:00,5.0571,210.237
28-10-2023 12:00,5.1713,226.1832
28-10-2023 13:00,3.9577,218.5914
28-10-2023 14:00,3.6618,207.3892
28-10-2023 15:00,3.2303,82.2551
28-10-2023 16:00,1.8536,235.456
28-10-2023 17:00,1.8104,335.0926
28-10-2023 18:00,2.1258,327.2369
28-10-2023 19:00,2.5585,339.1538
28-10-2023 20:00,2.3082,341.9208
28-10-2023 21:00,3.2046,356.0119
28-10-2023 22:00,3.5414,14.5101
28-10-2023 23:00,3.6245,27.2718
29-10-2023 00:00,2.654,29.1132
29-10-2023 01:00,2.4682,65.8315
29-10-2023 02:00,1.4447,66.3693
29-10-2023 03:00,2.2411,170.1471
29-10-2023 04:00,1.6574,180.2064
29-10-2023 05:00,1.6024,172.8722
29-10-2023 06:00,1.1027,156.7608
29-10-2023 07:00,1.575,178.031
29-10-2023 08:00,3.1777,275.0612
29-10-2023 09:00,3.5755,258.9637
29-10-2023 10:00,2.0471,280.2073
29-10-2023 11:00,1.9878,75.1346
29-10-2023 12:00,0.8627,247.7075
29-10-2023 13:00,0.972,212.3767
29-10-2023 14:00,0.9383,140.1768
29-10-2023 15:00,1.6553,227.0783
29-10-2023 16:00,1.3313,216.6154
29-10-2023 17:00,2.0492,222.3553
29-10-2023 18:00,1.3001,185.8535
29-10-2023 19:00,0.6981,63.0187
29-10-2023 20:00,1.6151,45.9356
29-10-2023 21:00,2.0359,25.3427
29-10-2023 22:00,3.2118,6.9174
29-10-2023 23:00,3.544,5.7914
30-10-2023 00:00,2.9993,44.3637
30-10-2023 01:00,3.3177,50.4993
30-10-2023 02:00,2.8483,49.3594
30-10-2023 03:00,4.2207,69.1513
30-10-2023 04:00,3.1854,74.6103
30-10-2023 05:00,3.0268,72.2268
30-10-2023 06:00,2.1987,65.1968
30-10-2023 07:00,1.538,64.9558
30-10-2023 08:00,1.452,72.9554
30-10-2023 09:00,4.3071,143.4184
30-10-2023 10:00,2.6093,359.9148
30-10-2023 11:00,1.6309,36.4611
30-10-2023 12:00,1.8335,76.7696
30-10-2023 13:00,0.5993,71.5326
30-10-2023 14:00,0.8004,105.0413
30-10-2023 15:00,0.7358,148.457
30-10-2023 16:00,2.7364,345.0229
30-10-2023 17:00,2.131,351.3423
30-10-2023 18:00,2.7959,14.0741
30-10-2023 19:00,2.1974,20.3454
30-10-2023 20:00,2.4839,21.8733
30-10-2023 21:00,2.7306,22.1396
30-10-2023 22:00,2.9324,20.706
30-10-2023 23:00,3.261,22.4675
31-10-2023 00:00,2.85,17.4124
31-10-2023 01:00,3.6079,30.0145
31-10-2023 02:00,4.0191,43.7243
31-10-2023 03:00,4.2965,56.145
31-10-2023 04:00,4.0193,68.3631
31-10-2023 05:00,3.4977,64.8562
31-10-2023 06:00,3.6577,103.2303
31-10-2023 07:00,2.8201,90.6139
31-10-2023 08:00,2.8978,93.2915
31-10-2023 09:00,2.3238,96.8443
31-10-2023 10:00,1.9116,104.6019
31-10-2023 11:00,2.4421,104.3186
31-10-2023 12:00,2.7206,133.9681
31-10-2023 13:00,1.535,147.5727
31-10-2023 14:00,2.647,185.0775
31-10-2023 15:00,4.8717,112.9771
31-10-2023 16:00,3.7,134.816
31-10-2023 17:00,1.6526,131.3753
31-10-2023 18:00,2.9705,50.6051
31-10-2023 19:00,4.1581,83.4141
31-10-2023 20:00,4.0527,65.5193
31-10-2023 21:00,3.9899,49.0768
31-10-2023 22:00,3.6829,87.7014
31-10-2023 23:00,3.8208,96.7573
01-11-2023 00:00,4.0648,89.2106
01-11-2023 01:00,4.2107,78.9639
01-11-2023 02:00,4.5119,74.9821
01-11-2023 03:00,5.0112,66.5094
01-11-2023 04:00,4.6203,68.5785
01-11-2023 05:00,4.0648,67.2606
01-11-2023 06:00,3.4964,65.3619
01-11-2023 07:00,3.9369,51.914
01-11-2023 08:00,3.6276,63.1363
01-11-2023 09:00,4.7336,49.6237
01-11-2023 10:00,3.1154,83.7404
01-11-2023 11:00,6.6444,85.5182
01-11-2023 12:00,4.6588,127.926
01-11-2023 13:00,4.1531,191.8661
01-11-2023 14:00,1.0517,172.0244
01-11-2023 15:00,4.2547,67.2661
01-11-2023 16:00,4.5454,26.0766
01-11-2023 17:00,3.6584,1.7148
01-11-2023 18:00,2.5165,36.7794
01-11-2023 19:00,2.1525,50.7418
01-11-2023 20:00,2.4287,41.5352
01-11-2023 21:00,2.6534,62.1363
01-11-2023 22:00,1.4278,40.1361
01-11-2023 23:00,1.8528,358.7314
02-11-2023 00:00,2.5778,42.3733
02-11-2023 01:00,2.1466,88.8195
02-11-2023 02:00,2.5994,87.7557
02-11-2023 03:00,2.3938,99.7549
02-11-2023 04:00,2.6805,105.9049
02-11-2023 05:00,3.1833,142.2673
02-11-2023 06:00,3.472,135.6869
02-11-2023 07:00,4.2414,138.5823
02-11-2023 08:00,5.8727,185.1662
02-11-2023 09:00,3.8257,171.782
02-11-2023 10:00,5.493,178.6811
02-11-2023 11:00,5.1941,190.2402
02-11-2023 12:00,4.2322,163.0393
02-11-2023 13:00,4.4631,120.8645
02-11-2023 14:00,5.3577,166.3344
02-11-2023 15:00,4.4811,170.8999
02-11-2023 16:00,3.175,163.079
02-11-2023 17:00,4.4852,97.1865
02-11-2023 18:00,3.1251,125.4953
02-11-2023 19:00,3.446,110.2214
02-11-2023 20:00,3.4103,103.1478
02-11-2023 21:00,4.5764,93.4014
02-11-2023 22:00,5.9128,100.8127
02-11-2023 23:00,5.2665,89.2923
03-11-2023 00:00,6.2789,82.6133
03-11-2023 01:00,7.0187,83.3868
03-11-2023 02:00,11.2607,118.0663
03-11-2023 03:00,7.6204,102.7027
03-11-2023 04:00,8.3805,101.7213
03-11-2023 05:00,8.6028,98.0758
03-11-2023 06:00,9.7299,104.9567
03-11-2023 07:00,8.6445,106.8457
03-11-2023 08:00,11.0485,103.7121
03-11-2023 09:00,8.9267,98.9094
03-11-2023 10:00,8.0045,117.7205
03-11-2023 11:00,8.4011,108.2137
03-11-2023 12:00,7.4938,98.4123
03-11-2023 13:00,12.638,84.6009
03-11-2023 14:00,9.8925,117.6634
03-11-2023 15:00,9.779,128.5658
03-11-2023 16:00,10.1963,126.3065
03-11-2023 17:00,9.0859,109.8145
03-11-2023 18:00,10.147,114.8839
03-11-2023 19:00,9.316,97.888
03-11-2023 20:00,9.413,106.6494
03-11-2023 21:00,9.5719,99.5343
03-11-2023 22:00,8.7338,90.513
03-11-2023 23:00,9.6104,86.6243
04-11-2023 00:00,10.0613,91.956
04-11-2023 01:00,8.6605,90.8203
04-11-2023 02:00,9.2608,89.3065
04-11-2023 03:00,9.3597,94.0241
04-11-2023 04:00,10.5187,107.6019
04-11-2023 05:00,9.0298,115.1232
04-11-2023 06:00,10.7968,111.13
04-11-2023 07:00,9.8385,102.1632
04-11-2023 08:00,9.9033,106.145
04-11-2023 09:00,9.4242,97.4058
04-11-2023 10:00,10.3185,97.9192
04-11-2023 11:00,10.3341,98.8804
04-11-2023 12:00,9.721,107.4324
04-11-2023 13:00,8.8482,106.113
04-11-2023 14:00,9.1886,106.9325
04-11-2023 15:00,9.2279,109.1711
04-11-2023 16:00,9.6794,106.4371
04-11-2023 17:00,9.4542,106.8909
04-11-2023 18:00,9.1238,110.5532
04-11-2023 19:00,7.8218,113.2133
04-11-2023 20:00,8.9757,102.745
04-11-2023 21:00,8.3794,97.5732
04-11-2023 22:00,8.6942,91.6625
04-11-2023 23:00,8.8167,90.8638
05-11-2023 00:00,9.8702,99.4838
05-11-2023 01:00,9.5973,105.098
05-11-2023 02:00,9.909,94.253
05-11-2023 03:00,9.5475,96.1907
05-11-2023 04:00,8.8017,91.9964
05-11-2023 05:00,8.9631,96.4263
05-11-2023 06:00,9.0377,95.595
05-11-2023 07:00,8.0867,98.6
05-11-2023 08:00,9.255,93.0885
05-11-2023 09:00,7.8605,91.3496
05-11-2023 10:00,7.8997,70.3901
05-11-2023 11:00,6.8687,122.4985
05-11-2023 12:00,7.9427,105.2222
05-11-2023 13:00,6.4378,99.8847
05-11-2023 14:00,7.941,95.5027
05-11-2023 15:00,7.0403,90.61
05-11-2023 16:00,7.5702,95.0107
05-11-2023 17:00,8.1106,97.2147
05-11-2023 18:00,6.6735,102.9214
05-11-2023 19:00,6.9792,96.0861
05-11-2023 20:00,7.6528,101.0391
05-11-2023 21:00,7.9008,83.4792
05-11-2023 22:00,8.3461,91.4522
05-11-2023 23:00,8.3051,86.5406
06-11-2023 00:00,7.787,80.2317
06-11-2023 01:00,7.9955,87.4628
06-11-2023 02:00,8.2147,98.1511
06-11-2023 03:00,7.752,93.2568
06-11-2023 04:00,8.078,96.527
06-11-2023 05:00,7.0551,107.8323
06-11-2023 06:00,6.4389,97.0293
06-11-2023 07:00,6.1691,91.5725
06-11-2023 08:00,5.1734,95.8618
06-11-2023 09:00,5.6524,90.4228
06-11-2023 10:00,6.9071,117.2852
06-11-2023 11:00,4.7614,107.4046
06-11-2023 12:00,6.3413,97.9655
06-11-2023 13:00,6.6692,100.2146
06-11-2023 14:00,5.6198,99.2013
06-11-2023 15:00,5.7945,102.2898
06-11-2023 16:00,5.7328,92.0176
06-11-2023 17:00,5.2453,83.9868
06-11-2023 18:00,7.0676,114.1482
06-11-2023 19:00,4.6862,89.6109
06-11-2023 20:00,5.3715,74.8016
06-11-2023 21:00,6.2382,79.5426
06-11-2023 22:00,6.4203,77.8621
06-11-2023 23:00,6.562,83.4326
07-11-2023 00:00,6.9802,93.2496
07-11-2023 01:00,6.9392,90.3421
07-11-2023 02:00,6.8601,91.2364
07-11-2023 03:00,7.1906,89.6736
07-11-2023 04:00,5.8778,96.3689
07-11-2023 05:00,6.1377,87.3878
07-11-2023 06:00,5.764,79.3854
07-11-2023 07:00,7.5716,91.0407
07-11-2023 08:00,6.5965,94.5372
07-11-2023 09:00,6.6087,99.0063
07-11-2023 10:00,8.1404,69.283
07-11-2023 11:00,6.1903,84.5155
07-11-2023 12:00,8.1371,96.4286
07-11-2023 13:00,5.8023,101.1317
07-11-2023 14:00,4.5616,103.8287
07-11-2023 15:00,3.5571,125.3999
07-11-2023 16:00,2.598,124.6991
07-11-2023 17:00,3.031,114.6298
07-11-2023 18:00,2.7476,67.4262
07-11-2023 19:00,3.5142,72.5919
07-11-2023 20:00,4.4388,56.7869
07-11-2023 21:00,5.6674,54.1957
07-11-2023 22:00,6.2873,62.1071
07-11-2023 23:00,6.6933,71.4489
08-11-2023 00:00,6.6097,79.0414
08-11-2023 01:00,5.9556,75.4005
08-11-2023 02:00,7.2413,77.8846
08-11-2023 03:00,7.6279,84.2145
08-11-2023 04:00,7.4342,87.4971
08-11-2023 05:00,7.363,90.9814
08-11-2023 06:00,6.8245,102.747
08-11-2023 07:00,6.261,104.3565
08-11-2023 08:00,6.8782,81.1718
08-11-2023 09:00,7.396,103.2255
08-11-2023 10:00,7.4047,221.8687
08-11-2023 11:00,8.7377,121.2028
08-11-2023 12:00,7.956,104.9519
08-11-2023 13:00,9.015,115.8633
08-11-2023 14:00,8.3213,112.7485
08-11-2023 15:00,8.8225,104.5379
08-11-2023 16:00,7.2136,113.4359
08-11-2023 17:00,7.5885,100.4925
08-11-2023 18:00,8.013,88.9735
08-11-2023 19:00,7.9885,79.1619
08-11-2023 20:00,7.9762,88.2594
08-11-2023 21:00,8.323,82.9024
08-11-2023 22:00,8.7538,80.8615
08-11-2023 23:00,9.4616,74.3248
09-11-2023 00:00,9.8011,78.4675
09-11-2023 01:00,10.0237,81.5521
09-11-2023 02:00,9.4033,88.0391
09-11-2023 03:00,9.4801,85.9338
09-11-2023 04:00,8.8829,95.0471
09-11-2023 05:00,10.3897,94.2475
09-11-2023 06:00,10.911,96.3942
09-11-2023 07:00,9.8066,97.6711
09-11-2023 08:00,9.6794,56.5752
09-11-2023 09:00,9.9426,69.5215
09-11-2023 10:00,10.8303,108.7413
09-11-2023 11:00,11.5535,112.1519
09-11-2023 12:00,10.488,96.2926
09-11-2023 13:00,10.3287,85.8758
09-11-2023 14:00,10.1343,108.2135
09-11-2023 15:00,10.6177,341.093
09-11-2023 16:00,11.0558,74.488
09-11-2023 17:00,11.4712,100.4319
09-11-2023 18:00,11.1557,96.9559
09-11-2023 19:00,12.2955,94.5639
09-11-2023 20:00,12.5094,90.1494
09-11-2023 21:00,12.2861,93.0315
09-11-2023 22:00,12.3073,93.1887
09-11-2023 23:00,12.5567,91.3691
10-11-2023 00:00,12.2218,91.1243
10-11-2023 01:00,12.624,94.7889
10-11-2023 02:00,12.5787,91.8928
10-11-2023 03:00,11.7755,80.6196
10-11-2023 04:00,12.5077,76.8543
10-11-2023 05:00,12.0268,100.811
10-11-2023 06:00,11.3715,139.3401
10-11-2023 07:00,11.7372,67.8468
10-11-2023 08:00,11.3799,90.6313
10-11-2023 09:00,13.062,96.2018
10-11-2023 10:00,13.6635,99.645
10-11-2023 11:00,13.4117,98.3725
10-11-2023 12:00,12.6229,95.9644
10-11-2023 13:00,12.5696,96.6312
10-11-2023 14:00,12.428,99.4317
10-11-2023 15:00,13.3859,97.0851
10-11-2023 16:00,13.092,95.1041
10-11-2023 17:00,12.9651,95.7561
10-11-2023 18:00,12.6646,138.9834
10-11-2023 19:00,12.6982,272.2774
10-11-2023 20:00,13.3297,99.3819
10-11-2023 21:00,13.1101,89.8518
10-11-2023 22:00,13.487,86.8953
10-11-2023 23:00,13.9172,85.7421
11-11-2023 00:00,14.6594,88.0103
11-11-2023 01:00,13.3726,86.6599
11-11-2023 02:00,13.4259,94.6466
11-11-2023 03:00,12.726,96.2102
11-11-2023 04:00,12.4816,98.5047
11-11-2023 05:00,13.3166,99.8525
11-11-2023 06:00,12.9918,100.4094
11-11-2023 07:00,13.0004,141.4905
11-11-2023 08:00,12.4245,219.4724
11-11-2023 09:00,12.7334,104.2117
11-11-2023 10:00,11.3255,80.4481
11-11-2023 11:00,10.6027,124.419
11-11-2023 12:00,11.508,106.255
11-11-2023 13:00,11.9859,59.9296
11-11-2023 14:00,11.4513,109.8131
11-11-2023 15:00,12.1183,107.8356
11-11-2023 16:00,11.2281,118.1419
11-11-2023 17:00,9.8422,108.5503
11-11-2023 18:00,10.3955,93.6263
11-11-2023 19:00,11.2909,101.383
11-11-2023 20:00,12.3409,94.9253
11-11-2023 21:00,12.4276,91.6049
11-11-2023 22:00,11.8331,299.6615
11-11-2023 23:00,13.1644,82.5952
12-11-2023 00:00,13.2371,80.7914
12-11-2023 01:00,12.8909,45.1601
12-11-2023 02:00,13.444,192.0458
12-11-2023 03:00,14.3681,88.1146
12-11-2023 04:00,14.5209,95.8927
12-11-2023 05:00,11.3913,100.9748
12-11-2023 06:00,11.7414,107.3795
12-11-2023 07:00,11.7107,108.2258
12-11-2023 08:00,10.7575,109.7633
12-11-2023 09:00,12.4462,99.5317
12-11-2023 10:00,11.4796,102.6324
12-11-2023 11:00,10.7413,100.3225
12-11-2023 12:00,11.7261,100.7596
12-11-2023 13:00,13.1962,96.2294
12-11-2023 14:00,13.4094,98.88
12-11-2023 15:00,12.2768,94.3603
12-11-2023 16:00,12.2803,104.7185
12-11-2023 17:00,11.7589,107.9049
12-11-2023 18:00,10.0248,106.1171
12-11-2023 19:00,11.0092,96.1379
12-11-2023 20:00,11.7784,94.5309
12-11-2023 21:00,11.4015,88.3574
12-11-2023 22:00,10.4687,94.0376
12-11-2023 23:00,11.6264,91.0644
13-11-2023 00:00,11.2861,90.2577
13-11-2023 01:00,11.9345,91.7464
13-11-2023 02:00,12.1929,92.9751
13-11-2023 03:00,12.9993,106.0536
13-11-2023 04:00,11.9888,103.03
13-11-2023 05:00,11.5216,100.008
13-11-2023 06:00,11.221,103.1506
13-11-2023 07:00,10.6879,103.4548
13-11-2023 08:00,11.0331,97.0598
13-11-2023 09:00,11.4152,90.437
13-11-2023 10:00,11.4149,96.294
13-11-2023 11:00,10.8508,97.4207
13-11-2023 12:00,12.0113,98.0664
13-11-2023 13:00,10.5342,108.9802
13-11-2023 14:00,11.1381,98.6245
13-11-2023 15:00,10.8162,105.0528
13-11-2023 16:00,10.6804,104.9173
13-11-2023 17:00,11.8266,98.9217
13-11-2023 18:00,10.6361,106.4694
13-11-2023 19:00,10.524,110.1065
13-11-2023 20:00,11.7463,100.8082
13-11-2023 21:00,10.7421,100.334
13-11-2023 22:00,11.7519,94.2556
13-11-2023 23:00,12.2654,95.6154
14-11-2023 00:00,13.1671,98.5872
14-11-2023 01:00,13.2305,97.234
14-11-2023 02:00,12.4559,91.3365
14-11-2023 03:00,12.1198,97.3919
14-11-2023 04:00,12.1573,52.3281
14-11-2023 05:00,11.8858,123.4936
14-11-2023 06:00,13.0379,43.6416
14-11-2023 07:00,12.5534,44.4974
14-11-2023 08:00,10.8326,104.1934
14-11-2023 09:00,10.8451,99.8973
14-11-2023 10:00,11.1981,102.3632
14-11-2023 11:00,10.7208,103.8443
14-11-2023 12:00,11.2231,99.6345
14-11-2023 13:00,12.553,100.4181
14-11-2023 14:00,11.0356,106.0933
14-11-2023 15:00,9.9901,104.1595
14-11-2023 16:00,12.2593,101.1699
14-11-2023 17:00,11.9877,106.31
14-11-2023 18:00,11.3577,103.3534
14-11-2023 19:00,12.1045,102.1213
14-11-2023 20:00,11.0348,102.3873
14-11-2023 21:00,11.4111,96.8025
14-11-2023 22:00,12.6813,94.8548
14-11-2023 23:00,12.7888,91.4736
15-11-2023 00:00,12.8819,87.7687
15-11-2023 01:00,13.079,96.1029
15-11-2023 02:00,12.4671,91.5021
15-11-2023 03:00,12.3008,151.1975
15-11-2023 04:00,12.7983,100.9602
15-11-2023 05:00,13.8014,98.2767
15-11-2023 06:00,11.5109,105.8193
15-11-2023 07:00,12.5286,98.5533
15-11-2023 08:00,12.2822,102.0484
15-11-2023 09:00,11.9669,101.5548
15-11-2023 10:00,12.1429,96.9998
15-11-2023 11:00,11.957,98.354
15-11-2023 12:00,11.739,102.3762
15-11-2023 13:00,13.5613,95.827
15-11-2023 14:00,11.7285,100.633
15-11-2023 15:00,11.9076,105.228
15-11-2023 16:00,11.3363,100.7875
15-11-2023 17:00,11.0417,106.0741
15-11-2023 18:00,11.1837,94.2681
15-11-2023 19:00,12.2229,97.6732
15-11-2023 20:00,12.1075,99.2104
15-11-2023 21:00,12.181,100.5757
15-11-2023 22:00,11.6693,95.9696
15-11-2023 23:00,12.0383,95.4266
16-11-2023 00:00,10.7737,99.7494
16-11-2023 01:00,10.7953,103.8321
16-11-2023 02:00,10.6825,106.1732
16-11-2023 03:00,12.7274,102.6316
16-11-2023 04:00,12.9715,105.9335
16-11-2023 05:00,12.032,131.7589
16-11-2023 06:00,11.8133,105.1792
16-11-2023 07:00,13.6295,115.2265
16-11-2023 08:00,13.3434,117.199
16-11-2023 09:00,11.1441,112.9573
16-11-2023 10:00,12.6341,116.8383
16-11-2023 11:00,11.7489,109.9388
16-11-2023 12:00,11.3263,112.2208
16-11-2023 13:00,12.2439,115.0148
16-11-2023 14:00,12.6338,118.3008
16-11-2023 15:00,11.1847,119.0005
16-11-2023 16:00,11.7189,112.409
16-11-2023 17:00,11.3896,115.6416
16-11-2023 18:00,10.8639,113.1263
16-11-2023 19:00,10.3797,109.5528
16-11-2023 20:00,8.6054,102.6175
16-11-2023 21:00,7.672,104.1247
16-11-2023 22:00,8.5378,95.7394
16-11-2023 23:00,10.5623,92.7082
17-11-2023 00:00,10.7277,180.1412
17-11-2023 01:00,10.7405,124.6571
17-11-2023 02:00,11.1029,112.6133
17-11-2023 03:00,10.8032,115.2838
17-11-2023 04:00,11.0003,119.1945
17-11-2023 05:00,11.3292,119.9491
17-11-2023 06:00,11.4785,124.0327
17-11-2023 07:00,12.2537,120.7221
17-11-2023 08:00,11.1459,129.0117
17-11-2023 09:00,11.3271,130.3111
17-11-2023 10:00,10.6113,130.5102
17-11-2023 11:00,10.4587,126.5081
17-11-2023 12:00,10.8373,127.9867
17-11-2023 13:00,9.5524,121.3436
17-11-2023 14:00,10.1745,128.78
17-11-2023 15:00,8.4458,121.8854
17-11-2023 16:00,8.2088,119.6013
17-11-2023 17:00,7.4965,126.752
17-11-2023 18:00,7.1729,114.2473
17-11-2023 19:00,8.922,109.667
17-11-2023 20:00,9.5557,110.7362
17-11-2023 21:00,8.5086,103.7459
17-11-2023 22:00,8.3907,100.9144
17-11-2023 23:00,6.6319,101.0776
18-11-2023 00:00,5.8871,99.3292
18-11-2023 01:00,6.9251,111.4467
18-11-2023 02:00,7.6564,120.2477
18-11-2023 03:00,6.5348,125.2773
18-11-2023 04:00,7.7158,131.4544
18-11-2023 05:00,6.3501,130.6287
18-11-2023 06:00,6.7506,129.1075
18-11-2023 07:00,5.9517,137.291
18-11-2023 08:00,5.8094,137.1166
18-11-2023 09:00,5.9176,144.1876
18-11-2023 10:00,6.2733,141.3373
18-11-2023 11:00,6.376,143.648
18-11-2023 12:00,5.5279,152.9179
18-11-2023 13:00,4.9539,161.942
18-11-2023 14:00,3.8992,172.7716
18-11-2023 15:00,3.4307,189.503
18-11-2023 16:00,2.4355,196.7237
18-11-2023 17:00,1.2502,227.7251
18-11-2023 18:00,0.9635,191.5515
18-11-2023 19:00,1.4042,182.5252
18-11-2023 20:00,1.2247,125.6115
18-11-2023 21:00,2.5646,113.6132
18-11-2023 22:00,1.217,117.6542
18-11-2023 23:00,3.4103,124.6294
19-11-2023 00:00,1.0199,112.463
19-11-2023 01:00,0.9718,258.0447
19-11-2023 02:00,1.3265,268.629
19-11-2023 03:00,1.1256,331.972
19-11-2023 04:00,1.1588,26.3692
19-11-2023 05:00,1.3459,86.9199
19-11-2023 06:00,1.3578,126.6122
19-11-2023 07:00,1.6284,80.45
19-11-2023 08:00,2.6875,57.4342
19-11-2023 09:00,3.1734,64.803
19-11-2023 10:00,3.6939,78.6955
19-11-2023 11:00,2.9408,94.939
19-11-2023 12:00,3.3865,100.143
19-11-2023 13:00,4.0229,125.5623
19-11-2023 14:00,3.4333,144.0757
19-11-2023 15:00,2.4483,185.704
19-11-2023 16:00,1.0251,131.8373
19-11-2023 17:00,0.7322,171.954
19-11-2023 18:00,0.9387,346.4046
19-11-2023 19:00,1.735,323.0367
19-11-2023 20:00,2.3248,36.4199
19-11-2023 21:00,1.3718,34.6767
19-11-2023 22:00,1.8115,309.2448
19-11-2023 23:00,1.4509,295.0102
20-11-2023 00:00,1.7851,98.7419
20-11-2023 01:00,2.2477,184.1905
20-11-2023 02:00,5.167,250.5581
20-11-2023 03:00,3.751,257.5289
20-11-2023 04:00,4.4642,265.9102
20-11-2023 05:00,4.3001,260.4287
20-11-2023 06:00,5.7913,278.157
20-11-2023 07:00,5.3795,250.9761
20-11-2023 08:00,6.0794,264.1073
20-11-2023 09:00,5.8263,263.85
20-11-2023 10:00,5.5339,255.4084
20-11-2023 11:00,6.9012,250.1449
20-11-2023 12:00,7.2691,245.5761
20-11-2023 13:00,9.4609,246.2674
20-11-2023 14:00,8.4277,253.7713
20-11-2023 15:00,7.9356,258.2102
20-11-2023 16:00,5.6529,257.109
20-11-2023 17:00,6.7542,271.9168
20-11-2023 18:00,8.3301,278.8153
20-11-2023 19:00,8.5842,259.1798
20-11-2023 20:00,7.514,267.7457
20-11-2023 21:00,6.9148,274.9882
20-11-2023 22:00,10.8543,320.3807
20-11-2023 23:00,8.6883,317.5742
21-11-2023 00:00,7.1087,305.8765
21-11-2023 01:00,6.8669,301.6517
21-11-2023 02:00,7.6974,297.8098
21-11-2023 03:00,9.0397,296.412
21-11-2023 04:00,9.807,298.6786
21-11-2023 05:00,7.1551,275.6984
21-11-2023 06:00,6.9321,281.1716
21-11-2023 07:00,6.4148,267.625
21-11-2023 08:00,5.9332,260.9379
21-11-2023 09:00,5.7544,249.8445
21-11-2023 10:00,6.1779,239.8392
21-11-2023 11:00,5.8787,242.8141
21-11-2023 12:00,3.7075,216.2264
21-11-2023 13:00,4.7718,198.1604
21-11-2023 14:00,5.5941,193.5654
21-11-2023 15:00,4.8271,206.9652
21-11-2023 16:00,6.6992,224.3734
21-11-2023 17:00,5.5664,230.3458
21-11-2023 18:00,5.6177,250.233
21-11-2023 19:00,5.8333,256.8213
21-11-2023 20:00,4.7093,267.6949
21-11-2023 21:00,4.3113,277.6764
21-11-2023 22:00,2.5385,294.2831
21-11-2023 23:00,1.0584,0.9212
22-11-2023 00:00,1.6514,30.3574
22-11-2023 01:00,1.6824,80.4695
22-11-2023 02:00,2.7491,0.8863
22-11-2023 03:00,4.1325,95.9609
22-11-2023 04:00,3.8314,101.1153
22-11-2023 05:00,4.3894,99.0762
22-11-2023 06:00,5.088,90.8459
22-11-2023 07:00,4.8299,93.0024
22-11-2023 08:00,5.8602,95.4755
22-11-2023 09:00,6.0856,95.8099
22-11-2023 10:00,4.417,104.2292
22-11-2023 11:00,5.208,115.4426
22-11-2023 12:00,5.8413,97.0843
22-11-2023 13:00,5.7805,129.0362
22-11-2023 14:00,4.811,121.7956
22-11-2023 15:00,4.0366,125.6078
22-11-2023 16:00,4.9061,121.8169
22-11-2023 17:00,4.2963,123.6256
22-11-2023 18:00,3.6551,120.0569
22-11-2023 19:00,4.5364,119.3196
22-11-2023 20:00,5.265,120.9786
22-11-2023 21:00,5.3439,118.9332
22-11-2023 22:00,6.2147,98.7763
22-11-2023 23:00,6.3666,92.8746
23-11-2023 00:00,6.7638,85.9261
23-11-2023 01:00,7.2459,81.2815
23-11-2023 02:00,7.7851,81.3201
23-11-2023 03:00,7.6827,82.4794
23-11-2023 04:00,6.6405,96.4109
23-11-2023 05:00,6.9491,94.4967
23-11-2023 06:00,7.1112,91.9523
23-11-2023 07:00,6.5565,94.6557
23-11-2023 08:00,6.9821,90.3051
23-11-2023 09:00,6.1981,103.4976
23-11-2023 10:00,7.4332,114.5196
23-11-2023 11:00,7.5651,119.4715
23-11-2023 12:00,8.1519,120.7042
23-11-2023 13:00,8.6587,124.1369
23-11-2023 14:00,8.2987,121.3648
23-11-2023 15:00,7.7267,121.8243
23-11-2023 16:00,6.8186,111.881
23-11-2023 17:00,6.287,109.7016
23-11-2023 18:00,6.5808,105.6934
23-11-2023 19:00,6.0565,100.3664
23-11-2023 20:00,7.1336,94.4379
23-11-2023 21:00,7.0825,91.6857
23-11-2023 22:00,7.3208,89.8213
23-11-2023 23:00,8.8213,88.2107
24-11-2023 00:00,9.1939,87.5778
24-11-2023 01:00,8.6476,89.3094
24-11-2023 02:00,9.0674,94.1267
24-11-2023 03:00,10.2786,101.0915
24-11-2023 04:00,9.0168,97.7615
24-11-2023 05:00,9.125,95.6064
24-11-2023 06:00,9.7231,91.2065
24-11-2023 07:00,9.387,88.1514
24-11-2023 08:00,9.3296,87.2038
24-11-2023 09:00,9.8442,86.0407
24-11-2023 10:00,10.1059,86.1373
24-11-2023 11:00,9.3758,87.4736
24-11-2023 12:00,9.6003,87.3645
24-11-2023 13:00,10.9341,90.2936
24-11-2023 14:00,9.1177,83.6868
24-11-2023 15:00,8.6526,82.7211
24-11-2023 16:00,10.0356,95.0283
24-11-2023 17:00,9.5614,100.8053
24-11-2023 18:00,9.733,97.6663
24-11-2023 19:00,10.3068,94.25
24-11-2023 20:00,10.0103,97.6092
24-11-2023 21:00,9.4687,95.6771
24-11-2023 22:00,10.8806,92.7349
24-11-2023 23:00,10.9516,87.5479
25-11-2023 00:00,10.1412,86.622
25-11-2023 01:00,10.8554,87.103
25-11-2023 02:00,10.867,89.1808
25-11-2023 03:00,11.3298,91.9928
25-11-2023 04:00,10.272,102.2172
25-11-2023 05:00,9.3608,104.7024
25-11-2023 06:00,10.3546,97.9372
25-11-2023 07:00,10.0409,98.4224
25-11-2023 08:00,9.6098,104.7635
25-11-2023 09:00,10.7065,102.4195
25-11-2023 10:00,10.0875,102.1104
25-11-2023 11:00,9.1922,103.4627
25-11-2023 12:00,9.27,99.6969
25-11-2023 13:00,9.9175,98.6879
25-11-2023 14:00,9.3519,97.8722
25-11-2023 15:00,10.0203,102.1849
25-11-2023 16:00,9.0962,104.4538
25-11-2023 17:00,9.1425,102.5716
25-11-2023 18:00,10.0116,98.5888
25-11-2023 19:00,9.9023,97.2428
25-11-2023 20:00,9.9136,95.8846
25-11-2023 21:00,9.4429,93.2224
25-11-2023 22:00,10.1078,95.1307
25-11-2023 23:00,10.5547,93.7724
26-11-2023 00:00,10.3714,87.645
26-11-2023 01:00,10.0663,93.8822
26-11-2023 02:00,10.8908,98.8452
26-11-2023 03:00,10.2203,102.389
26-11-2023 04:00,10.2084,102.3451
26-11-2023 05:00,10.2441,103.3468
26-11-2023 06:00,11.4136,96.2223
26-11-2023 07:00,11.0008,108.9287
26-11-2023 08:00,10.3887,107.6817
26-11-2023 09:00,10.5099,108.1757
26-11-2023 10:00,10.379,110.9484
26-11-2023 11:00,9.2803,110.0486
26-11-2023 12:00,8.9849,106.9999
26-11-2023 13:00,10.3895,102.582
26-11-2023 14:00,10.5521,105.5604
26-11-2023 15:00,11.4634,104.818
26-11-2023 16:00,11.1369,97.9091
26-11-2023 17:00,10.6855,100.619
26-11-2023 18:00,10.1841,103.4209
26-11-2023 19:00,10.5178,95.9167
26-11-2023 20:00,10.7958,97.6631
26-11-2023 21:00,10.9217,95.1031
26-11-2023 22:00,10.5136,88.0479
26-11-2023 23:00,11.2953,87.0169
27-11-2023 00:00,12.1652,84.0254
27-11-2023 01:00,12.4985,84.7261
27-11-2023 02:00,12.703,88.3323
27-11-2023 03:00,12.664,96.7813
27-11-2023 04:00,11.6351,97.1518
27-11-2023 05:00,11.3956,104.8655
27-11-2023 06:00,11.5652,102.0853
27-11-2023 07:00,10.7573,100.3029
27-11-2023 08:00,11.7853,102.2083
27-11-2023 09:00,11.653,93.0935
27-11-2023 10:00,12.6682,96.009
27-11-2023 11:00,12.0927,96.0228
27-11-2023 12:00,12.0809,94.6334
27-11-2023 13:00,12.6357,93.566
27-11-2023 14:00,11.9197,95.8287
27-11-2023 15:00,12.0278,96.5208
27-11-2023 16:00,11.8998,103.7376
27-11-2023 17:00,11.6955,308.5841
27-11-2023 18:00,11.0692,95.9925
27-11-2023 19:00,10.9902,20.586
27-11-2023 20:00,11.3863,107.4036
27-11-2023 21:00,11.3899,87.4419
27-11-2023 22:00,11.6315,81.1821
27-11-2023 23:00,12.5164,79.4891
28-11-2023 00:00,12.9035,85.8689
28-11-2023 01:00,13.3164,74.7131
28-11-2023 02:00,13.6374,87.9016
28-11-2023 03:00,11.9257,94.8587
28-11-2023 04:00,12.1478,47.2887
28-11-2023 05:00,12.2341,66.6018
28-11-2023 06:00,11.4686,128.5888
28-11-2023 07:00,11.6622,103.6114
28-11-2023 08:00,10.6452,62.3431
28-11-2023 09:00,12.1934,96.8813
28-11-2023 10:00,11.9373,200.524
28-11-2023 11:00,11.0283,79.8307
28-11-2023 12:00,11.0136,101.9535
28-11-2023 13:00,10.789,112.7075
28-11-2023 14:00,9.7857,105.0707
28-11-2023 15:00,10.4275,78.7052
28-11-2023 16:00,9.9472,100.9903
28-11-2023 17:00,10.4013,94.3537
28-11-2023 18:00,11.0009,117.966
28-11-2023 19:00,11.9971,87.828
28-11-2023 20:00,11.6075,130.3528
28-11-2023 21:00,11.6155,49.082
28-11-2023 22:00,12.6002,59.0401
28-11-2023 23:00,13.4867,82.9761
29-11-2023 00:00,13.6606,84.8182
29-11-2023 01:00,13.0949,87.5351
29-11-2023 02:00,12.4577,60.6593
29-11-2023 03:00,12.9945,117.7
29-11-2023 04:00,10.9526,101.7065
29-11-2023 05:00,10.8724,106.5318
29-11-2023 06:00,10.743,108.5506
29-11-2023 07:00,9.456,106.5239
29-11-2023 08:00,10.4694,104.0071
29-11-2023 09:00,10.2804,103.1146
29-11-2023 10:00,10.4181,103.0861
29-11-2023 11:00,11.3553,86.2254
29-11-2023 12:00,11.2943,99.5852
29-11-2023 13:00,11.0803,122.928
29-11-2023 14:00,10.3015,105.7835
29-11-2023 15:00,9.9576,108.8979
29-11-2023 16:00,10.5139,101.5597
29-11-2023 17:00,10.9297,102.0752
29-11-2023 18:00,9.6759,99.7845
29-11-2023 19:00,9.0688,102.7191
29-11-2023 20:00,9.9358,99.2669
29-11-2023 21:00,10.7104,94.1799
29-11-2023 22:00,10.98,79.607
29-11-2023 23:00,10.7793,85.6268
30-11-2023 00:00,10.4944,75.9698
30-11-2023 01:00,10.8404,93.8727
30-11-2023 02:00,10.7989,101.3741
30-11-2023 03:00,10.9438,64.3041
30-11-2023 04:00,10.7302,99.5328
30-11-2023 05:00,11.0257,97.8419
30-11-2023 06:00,10.6553,93.4504
30-11-2023 07:00,9.7805,99.0883
30-11-2023 08:00,9.0974,94.4083
30-11-2023 09:00,10.9778,98.073
30-11-2023 10:00,10.3419,100.7668
30-11-2023 11:00,10.5455,101.4256
30-11-2023 12:00,10.6059,101.4294
30-11-2023 13:00,9.6861,114.8223
30-11-2023 14:00,8.6073,104.3092
30-11-2023 15:00,7.7639,95.875
30-11-2023 16:00,8.1589,106.049
30-11-2023 17:00,9.0452,100.5123
30-11-2023 18:00,7.6909,110.2817
30-11-2023 19:00,10.7152,99.1795
30-11-2023 20:00,10.2558,85.0524
30-11-2023 21:00,10.0617,90.9061
30-11-2023 22:00,10.7973,92.7869
30-11-2023 23:00,10.3295,89.7534
01-12-2023 00:00,11.0759,87.2941
01-12-2023 01:00,10.1157,89.2396
01-12-2023 02:00,11.7145,88.5184
01-12-2023 03:00,10.6668,87.639
01-12-2023 04:00,10.9384,91.8541
01-12-2023 05:00,9.0113,99.0785
01-12-2023 06:00,9.7894,97.1037
01-12-2023 07:00,8.8145,95.9682
01-12-2023 08:00,9.1547,100.3132
01-12-2023 09:00,10.1527,99.6348
01-12-2023 10:00,10.4003,100.226
01-12-2023 11:00,9.3499,101.7949
01-12-2023 12:00,10.057,97.5511
01-12-2023 13:00,10.3331,95.3681
01-12-2023 14:00,10.7626,85.1884
01-12-2023 15:00,7.9498,89.2677
01-12-2023 16:00,11.0514,58.8013
01-12-2023 17:00,10.6026,196.2407
01-12-2023 18:00,10.2998,103.9369
01-12-2023 19:00,9.7665,102.0045
01-12-2023 20:00,10.5946,90.8632
01-12-2023 21:00,12.1279,88.3141
01-12-2023 22:00,11.8563,109.0176
01-12-2023 23:00,11.9135,4.8504
02-12-2023 00:00,12.1642,94.4826
02-12-2023 01:00,12.4107,189.113
02-12-2023 02:00,12.8803,91.9326
02-12-2023 03:00,11.8497,94.678
02-12-2023 04:00,12.1679,92.8331
02-12-2023 05:00,12.1108,94.7689
02-12-2023 06:00,11.3963,98.4106
02-12-2023 07:00,11.0257,99.6965
02-12-2023 08:00,11.3568,110.5414
02-12-2023 09:00,10.9531,101.6269
02-12-2023 10:00,11.9264,91.895
02-12-2023 11:00,11.6185,104.5173
02-12-2023 12:00,12.4914,101.9921
02-12-2023 13:00,10.1243,103.4026
02-12-2023 14:00,11.5347,101.9515
02-12-2023 15:00,11.4199,100.868
02-12-2023 16:00,10.2516,105.5683
02-12-2023 17:00,10.77,99.2451
02-12-2023 18:00,11.123,98.327
02-12-2023 19:00,10.4,101.7803
02-12-2023 20:00,11.012,98.7764
02-12-2023 21:00,10.7969,97.411
02-12-2023 22:00,11.8821,89.215
02-12-2023 23:00,11.3905,90.7651
03-12-2023 00:00,12.2316,91.6249
03-12-2023 01:00,12.2458,92.251
03-12-2023 02:00,13.2486,91.9061
03-12-2023 03:00,12.7747,95.3683
03-12-2023 04:00,11.292,103.5213
03-12-2023 05:00,12.3993,80.7431
03-12-2023 06:00,11.1556,101.4574
03-12-2023 07:00,11.3583,95.7029
03-12-2023 08:00,10.8567,96.457
03-12-2023 09:00,11.3094,98.9254
03-12-2023 10:00,10.1667,105.1529
03-12-2023 11:00,9.71,108.8772
03-12-2023 12:00,10.0638,110.3236
03-12-2023 13:00,11.1,103.5903
03-12-2023 14:00,10.217,103.679
03-12-2023 15:00,10.5747,101.987
03-12-2023 16:00,9.6608,103.3135
03-12-2023 17:00,10.0297,98.0833
03-12-2023 18:00,10.6525,96.1973
03-12-2023 19:00,9.8071,92.9187
03-12-2023 20:00,11.0015,91.0129
03-12-2023 21:00,11.0382,90.5572
03-12-2023 22:00,11.1311,92.2593
03-12-2023 23:00,11.1683,106.9952
04-12-2023 00:00,11.0145,147.7548
04-12-2023 01:00,11.2074,87.5143
04-12-2023 02:00,12.3697,155.7007
04-12-2023 03:00,12.7952,81.8309
04-12-2023 04:00,13.0445,93.3136
04-12-2023 05:00,11.8713,99.4764
04-12-2023 06:00,10.9949,103.228
04-12-2023 07:00,11.5116,98.0909
04-12-2023 08:00,11.2018,102.6131
04-12-2023 09:00,11.0073,102.112
04-12-2023 10:00,11.0389,106.3309
04-12-2023 11:00,11.1491,107.863
04-12-2023 12:00,11.3115,112.1313
04-12-2023 13:00,11.0524,110.068
04-12-2023 14:00,11.1051,108.1262
04-12-2023 15:00,11.1279,103.3333
04-12-2023 16:00,10.5461,101.6215
04-12-2023 17:00,10.6135,110.9793
04-12-2023 18:00,9.7992,106.8488
04-12-2023 19:00,10.2983,107.3577
04-12-2023 20:00,11.6359,99.7053
04-12-2023 21:00,11.1996,98.655
04-12-2023 22:00,12.184,89.1157
04-12-2023 23:00,11.8378,99.6028
05-12-2023 00:00,12.6169,97.2584
05-12-2023 01:00,11.8376,100.0889
05-12-2023 02:00,11.5014,95.3736
05-12-2023 03:00,11.189,103.1452
05-12-2023 04:00,11.6985,97.0287
05-12-2023 05:00,9.8333,105.3928
05-12-2023 06:00,10.1971,107.8595
05-12-2023 07:00,9.522,106.7074
05-12-2023 08:00,9.7935,101.5001
05-12-2023 09:00,10.9929,164.1245
05-12-2023 10:00,12.1023,102.104
05-12-2023 11:00,10.897,93.0733
05-12-2023 12:00,11.2923,161.9927
05-12-2023 13:00,10.8837,116.9853
05-12-2023 14:00,12.1195,101.2139
05-12-2023 15:00,10.8096,103.3362
05-12-2023 16:00,11.1813,102.2536
05-12-2023 17:00,11.545,103.5016
05-12-2023 18:00,11.4557,98.3385
05-12-2023 19:00,11.7186,149.7232
05-12-2023 20:00,11.9081,86.0453
05-12-2023 21:00,12.0981,97.5597
05-12-2023 22:00,12.7703,93.586
05-12-2023 23:00,12.3408,83.3661
06-12-2023 00:00,13.7057,83.8802
06-12-2023 01:00,12.8905,81.4844
06-12-2023 02:00,13.0749,84.3185
06-12-2023 03:00,12.1388,90.1809
06-12-2023 04:00,10.1086,96.9476
06-12-2023 05:00,10.102,95.3536
06-12-2023 06:00,10.949,93.8344
06-12-2023 07:00,12.0756,98.4688
06-12-2023 08:00,11.1549,95.2798
06-12-2023 09:00,11.4447,96.5683
06-12-2023 10:00,10.8345,107.5791
06-12-2023 11:00,11.0303,103.7566
06-12-2023 12:00,10.903,109.5182
06-12-2023 13:00,10.5474,103.9153
06-12-2023 14:00,10.3444,101.0127
06-12-2023 15:00,9.8195,103.2803
06-12-2023 16:00,9.3176,107.7209
06-12-2023 17:00,9.2291,107.8645
06-12-2023 18:00,8.7856,101.2368
06-12-2023 19:00,9.0428,98.3235
06-12-2023 20:00,9.4061,95.4982
06-12-2023 21:00,9.3659,93.2077
06-12-2023 22:00,10.6165,88.3178
06-12-2023 23:00,10.2404,111.696
07-12-2023 00:00,11.2339,89.3704
07-12-2023 01:00,10.3457,79.4317
07-12-2023 02:00,10.3214,90.6889
07-12-2023 03:00,10.2768,91.4476
07-12-2023 04:00,10.2248,100.4782
07-12-2023 05:00,9.4292,99.3275
07-12-2023 06:00,9.6194,101.1742
07-12-2023 07:00,8.0538,101.5771
07-12-2023 08:00,9.1947,91.8994
07-12-2023 09:00,10.1023,92.3781
07-12-2023 10:00,9.8991,92.0188
07-12-2023 11:00,8.9662,92.4935
07-12-2023 12:00,10.4534,87.0302
07-12-2023 13:00,9.9292,60.9559
07-12-2023 14:00,9.5511,234.7688
07-12-2023 15:00,9.4042,97.2512
07-12-2023 16:00,10.2203,90.4387
07-12-2023 17:00,8.7534,85.2725
07-12-2023 18:00,9.7813,87.6029
07-12-2023 19:00,9.5251,94.0731
07-12-2023 20:00,9.4339,97.1978
07-12-2023 21:00,9.775,93.1356
07-12-2023 22:00,10.6441,89.7185
07-12-2023 23:00,10.2959,79.5457
08-12-2023 00:00,10.956,86.1048
08-12-2023 01:00,12.1825,89.4291
08-12-2023 02:00,12.0564,79.6486
08-12-2023 03:00,10.8056,98.0407
08-12-2023 04:00,11.3659,97.6309
08-12-2023 05:00,12.5132,92.8393
08-12-2023 06:00,10.6653,102.1758
08-12-2023 07:00,12.0261,83.6582
08-12-2023 08:00,10.1,100.764
08-12-2023 09:00,10.6903,98.1124
08-12-2023 10:00,9.713,98.7936
08-12-2023 11:00,9.0668,97.0892
08-12-2023 12:00,10.8247,101.0977
08-12-2023 13:00,10.0104,96.3689
08-12-2023 14:00,11.7297,95.6854
08-12-2023 15:00,11.9736,96.6493
08-12-2023 16:00,10.9849,59.1837
08-12-2023 17:00,11.7091,95.1393
08-12-2023 18:00,12.3988,99.7205
08-12-2023 19:00,10.6193,104.0524
08-12-2023 20:00,11.4014,101.1144
08-12-2023 21:00,10.908,97.9061
08-12-2023 22:00,10.5313,99.4454
08-12-2023 23:00,11.8594,93.3984
09-12-2023 00:00,11.863,92.3712
09-12-2023 01:00,11.2237,88.177
09-12-2023 02:00,10.5228,91.7696
09-12-2023 03:00,10.7518,100.2646
09-12-2023 04:00,10.0601,93.7145
09-12-2023 05:00,10.426,93.6921
09-12-2023 06:00,9.7123,94.882
09-12-2023 07:00,9.6502,89.9103
09-12-2023 08:00,9.6963,94.3527
09-12-2023 09:00,10.0766,100.1545
09-12-2023 10:00,10.0461,99.925
09-12-2023 11:00,9.8659,101.2314
09-12-2023 12:00,9.0449,101.7299
09-12-2023 13:00,8.856,106.1516
09-12-2023 14:00,9.6114,104.3175
09-12-2023 15:00,9.163,100.8081
09-12-2023 16:00,8.9875,95.4339
09-12-2023 17:00,10.0502,96.0279
09-12-2023 18:00,10.1691,98.2394
09-12-2023 19:00,8.9905,97.9022
09-12-2023 20:00,9.9409,98.2396
09-12-2023 21:00,10.9708,100.2178
09-12-2023 22:00,11.8295,93.0976
09-12-2023 23:00,11.164,87.2294
10-12-2023 00:00,11.587,82.7053
10-12-2023 01:00,12.0429,88.9388
10-12-2023 02:00,11.6742,79.3507
10-12-2023 03:00,10.4755,86.3817
10-12-2023 04:00,10.2038,88.1823
10-12-2023 05:00,10.8901,95.7446
10-12-2023 06:00,10.4069,96.0007
10-12-2023 07:00,11.0926,98.9191
10-12-2023 08:00,10.7453,100.9879
10-12-2023 09:00,9.7451,94.2645
10-12-2023 10:00,10.1059,94.1067
10-12-2023 11:00,10.4815,98.5134
10-12-2023 12:00,10.3932,94.5019
10-12-2023 13:00,10.5937,93.6693
10-12-2023 14:00,10.9836,93.399
10-12-2023 15:00,9.6404,96.4876
10-12-2023 16:00,10.2985,101.2937
10-12-2023 17:00,10.7006,98.8306
10-12-2023 18:00,11.1761,98.3934
10-12-2023 19:00,11.9965,93.0302
10-12-2023 20:00,11.8958,92.0138
10-12-2023 21:00,11.4876,91.2968
10-12-2023 22:00,11.7975,192.7895
10-12-2023 23:00,11.3446,88.4073
11-12-2023 00:00,11.8775,89.6934
11-12-2023 01:00,11.9123,87.0908
11-12-2023 02:00,12.2347,150.105
11-12-2023 03:00,11.5289,100.4661
11-12-2023 04:00,10.9482,93.1376
11-12-2023 05:00,10.6788,102.3653
11-12-2023 06:00,10.4701,98.7111
11-12-2023 07:00,10.2127,99.8812
11-12-2023 08:00,9.426,100.6378
11-12-2023 09:00,9.3867,100.9034
11-12-2023 10:00,9.183,102.6102
11-12-2023 11:00,10.1986,101.5571
11-12-2023 12:00,9.4233,101.8216
11-12-2023 13:00,9.0564,102.2917
11-12-2023 14:00,9.4412,113.9251
11-12-2023 15:00,9.0195,103.1328
11-12-2023 16:00,9.0913,105.804
11-12-2023 17:00,9.0068,100.642
11-12-2023 18:00,7.6394,99.2082
11-12-2023 19:00,9.0456,97.137
11-12-2023 20:00,8.9671,96.308
11-12-2023 21:00,9.0767,98.8759
11-12-2023 22:00,8.848,93.0114
11-12-2023 23:00,10.2846,90.4019
12-12-2023 00:00,9.5024,90.1405
12-12-2023 01:00,9.5927,80.444
12-12-2023 02:00,9.7776,84.548
12-12-2023 03:00,9.3747,86.7938
12-12-2023 04:00,9.9962,83.3633
12-12-2023 05:00,10.1283,84.9536
12-12-2023 06:00,10.1816,90.6606
12-12-2023 07:00,9.9814,90.9467
12-12-2023 08:00,10.3534,101.7373
12-12-2023 09:00,10.4348,9.1627
12-12-2023 10:00,11.1287,96.2408
12-12-2023 11:00,9.7711,101.0456
12-12-2023 12:00,9.6912,99.6095
12-12-2023 13:00,9.9792,129.2854
12-12-2023 14:00,9.2752,88.3018
12-12-2023 15:00,10.5669,89.1173
12-12-2023 16:00,9.4662,88.3443
12-12-2023 17:00,8.6782,92.815
12-12-2023 18:00,7.7717,86.6652
12-12-2023 19:00,11.5741,80.7689
12-12-2023 20:00,10.4999,94.108
12-12-2023 21:00,10.4296,93.1702
12-12-2023 22:00,10.3528,81.3903
12-12-2023 23:00,11.638,83.3394
13-12-2023 00:00,10.214,84.4231
13-12-2023 01:00,11.7349,78.5997
13-12-2023 02:00,12.1674,80.9546
13-12-2023 03:00,12.8224,79.7387
13-12-2023 04:00,13.0893,79.7557
13-12-2023 05:00,11.833,98.2911
13-12-2023 06:00,12.7143,87.2028
13-12-2023 07:00,11.6191,87.6759
13-12-2023 08:00,12.8376,91.2881
13-12-2023 09:00,10.126,201.0584
13-12-2023 10:00,10.1373,88.7477
13-12-2023 11:00,9.5591,99.5388
13-12-2023 12:00,7.9715,109.7322
13-12-2023 13:00,10.6527,102.3228
13-12-2023 14:00,11.5231,88.3868
13-12-2023 15:00,11.1682,93.8689
13-12-2023 16:00,9.8479,85.1198
13-12-2023 17:00,10.0546,81.5405
13-12-2023 18:00,8.9957,88.9096
13-12-2023 19:00,8.6079,96.6747
13-12-2023 20:00,9.6261,95.4495
13-12-2023 21:00,8.2425,67.491
13-12-2023 22:00,9.3911,74.7263
13-12-2023 23:00,11.7376,73.664
14-12-2023 00:00,11.894,78.1579
14-12-2023 01:00,8.9225,65.3814
14-12-2023 02:00,10.6216,76.7739
14-12-2023 03:00,8.7153,84.9006
14-12-2023 04:00,10.2461,80.8973
14-12-2023 05:00,7.769,76.2071
14-12-2023 06:00,8.3453,83.5822
14-12-2023 07:00,10.3556,108.9399
14-12-2023 08:00,8.3498,98.658
14-12-2023 09:00,9.2936,102.6065
14-12-2023 10:00,9.2293,96.7766
14-12-2023 11:00,8.4973,95.8479
14-12-2023 12:00,8.096,102.0539
14-12-2023 13:00,8.3365,98.8151
14-12-2023 14:00,8.7546,101.9474
14-12-2023 15:00,7.7578,103.4828
14-12-2023 16:00,8.6174,103.8259
14-12-2023 17:00,8.6829,98.9209
14-12-2023 18:00,8.5677,100.0677
14-12-2023 19:00,7.2918,98.9789
14-12-2023 20:00,7.201,89.8989
14-12-2023 21:00,8.4985,86.9865
14-12-2023 22:00,9.081,92.4345
14-12-2023 23:00,8.0632,88.8061
15-12-2023 00:00,8.2961,82.1717
15-12-2023 01:00,8.3239,85.9628
15-12-2023 02:00,8.6549,86.029
15-12-2023 03:00,7.753,88.8585
15-12-2023 04:00,7.1302,98.0318
15-12-2023 05:00,6.8007,97.2905
15-12-2023 06:00,6.8936,94.6792
15-12-2023 07:00,6.9876,97.5843
15-12-2023 08:00,6.2503,101.048
15-12-2023 09:00,6.9546,101.8942
15-12-2023 10:00,7.5641,94.1414
15-12-2023 11:00,7.2025,96.7741
15-12-2023 12:00,7.0042,102.2656
15-12-2023 13:00,8.0796,97.5968
15-12-2023 14:00,7.8394,99.329
15-12-2023 15:00,8.1687,98.8558
15-12-2023 16:00,8.5555,99.0993
15-12-2023 17:00,8.7637,110.2537
15-12-2023 18:00,8.4921,99.7459
15-12-2023 19:00,8.3147,98.1825
15-12-2023 20:00,7.9253,97.2728
15-12-2023 21:00,8.9811,92.9356
15-12-2023 22:00,7.8947,85.8998
15-12-2023 23:00,7.9057,77.4633
16-12-2023 00:00,7.8973,72.3183
16-12-2023 01:00,8.338,78.3263
16-12-2023 02:00,7.7989,83.1495
16-12-2023 03:00,8.0812,86.9713
16-12-2023 04:00,7.4911,86.2386
16-12-2023 05:00,8.3165,89.894
16-12-2023 06:00,7.7228,92.9485
16-12-2023 07:00,7.5898,95.7521
16-12-2023 08:00,7.458,92.7943
16-12-2023 09:00,7.0867,91.5544
16-12-2023 10:00,7.9077,99.276
16-12-2023 11:00,7.4672,98.4638
16-12-2023 12:00,7.621,100.0646
16-12-2023 13:00,7.8941,103.8067
16-12-2023 14:00,6.8459,98.9402
16-12-2023 15:00,6.946,102.436
16-12-2023 16:00,7.5437,100.981
16-12-2023 17:00,6.8057,101.4054
16-12-2023 18:00,6.9031,102.7713
16-12-2023 19:00,6.5807,105.6383
16-12-2023 20:00,7.4391,98.8686
16-12-2023 21:00,6.8236,97.8642
16-12-2023 22:00,7.0981,97.5903
16-12-2023 23:00,7.8831,88.6902
17-12-2023 00:00,8.4723,81.2244
17-12-2023 01:00,8.8945,85.6088
17-12-2023 02:00,8.981,96.9709
17-12-2023 03:00,8.8623,95.3259
17-12-2023 04:00,8.7416,101.1306
17-12-2023 05:00,8.1053,103.6722
17-12-2023 06:00,7.0933,105.0059
17-12-2023 07:00,7.4655,103.8592
17-12-2023 08:00,7.9475,104.3607
17-12-2023 09:00,6.9549,108.3743
17-12-2023 10:00,7.412,111.2722
17-12-2023 11:00,6.9474,110.932
17-12-2023 12:00,8.5899,112.0633
17-12-2023 13:00,8.0324,118.1394
17-12-2023 14:00,7.2229,123.6661
17-12-2023 15:00,7.5566,127.4888
17-12-2023 16:00,7.5381,125.355
17-12-2023 17:00,7.5311,120.3557
17-12-2023 18:00,8.0091,114.1719
17-12-2023 19:00,6.9125,106.7096
17-12-2023 20:00,7.6322,115.4089
17-12-2023 21:00,6.9699,100.0067
17-12-2023 22:00,6.6036,93.211
17-12-2023 23:00,7.6144,95.1753
18-12-2023 00:00,7.6433,82.2447
18-12-2023 01:00,8.5306,95.5179
18-12-2023 02:00,7.0001,104.0649
18-12-2023 03:00,7.5584,114.4895
18-12-2023 04:00,7.0714,119.1238
18-12-2023 05:00,6.1815,115.9343
18-12-2023 06:00,7.5449,115.3046
18-12-2023 07:00,6.9829,111.7792
18-12-2023 08:00,6.6606,114.7675
18-12-2023 09:00,7.2659,115.366
18-12-2023 10:00,6.168,115.5
18-12-2023 11:00,6.5527,112.1577
18-12-2023 12:00,6.1828,105.7625
18-12-2023 13:00,6.4503,102.9232
18-12-2023 14:00,5.78,120.8269
18-12-2023 15:00,5.9908,121.2737
18-12-2023 16:00,7.2522,116.6682
18-12-2023 17:00,6.8554,116.106
18-12-2023 18:00,5.8448,115.4616
18-12-2023 19:00,5.7042,114.7982
18-12-2023 20:00,5.7584,114.1625
18-12-2023 21:00,6.1812,109.7483
18-12-2023 22:00,5.7178,97.2756
18-12-2023 23:00,5.1684,89.1758
19-12-2023 00:00,5.3844,91.8239
19-12-2023 01:00,6.0921,88.6304
19-12-2023 02:00,6.2073,95.8895
19-12-2023 03:00,6.0279,101.4033
19-12-2023 04:00,5.8174,112.8538
19-12-2023 05:00,5.6121,119.9256
19-12-2023 06:00,4.9544,126.482
19-12-2023 07:00,4.9422,110.4195
19-12-2023 08:00,5.3593,156.3829
19-12-2023 09:00,5.6292,115.7516
19-12-2023 10:00,4.7722,113.157
19-12-2023 11:00,3.7397,112.9143
19-12-2023 12:00,4.1099,100.6561
19-12-2023 13:00,3.9101,102.2646
19-12-2023 14:00,2.9994,127.6762
19-12-2023 15:00,4.7887,128.9556
19-12-2023 16:00,4.0681,131.6213
19-12-2023 17:00,3.7507,128.698
19-12-2023 18:00,3.7175,126.1042
19-12-2023 19:00,3.7658,120.5933
19-12-2023 20:00,4.0558,95.9267
19-12-2023 21:00,3.6489,96.2366
19-12-2023 22:00,4.617,96.0477
19-12-2023 23:00,4.4326,80.423
20-12-2023 00:00,5.7639,73.2494
20-12-2023 01:00,5.4367,79.5706
20-12-2023 02:00,4.705,83.7644
20-12-2023 03:00,5.174,86.0501
20-12-2023 04:00,4.479,99.4786
20-12-2023 05:00,4.6911,101.3562
20-12-2023 06:00,5.0695,103.7149
20-12-2023 07:00,4.6363,100.1154
20-12-2023 08:00,3.589,94.4183
20-12-2023 09:00,4.2615,106.381
20-12-2023 10:00,4.2725,103.9454
20-12-2023 11:00,4.4315,112.4973
20-12-2023 12:00,4.8862,120.1781
20-12-2023 13:00,5.474,104.4228
20-12-2023 14:00,5.3467,107.6354
20-12-2023 15:00,4.3305,114.0545
20-12-2023 16:00,4.364,116.9102
20-12-2023 17:00,4.7883,99.9053
20-12-2023 18:00,4.8936,99.7644
20-12-2023 19:00,5.134,92.4418
20-12-2023 20:00,6.5615,82.3276
20-12-2023 21:00,6.6217,87.1743
20-12-2023 22:00,6.114,74.3886
20-12-2023 23:00,6.4572,76.8443
21-12-2023 00:00,6.8736,68.8929
21-12-2023 01:00,7.6614,70.2639
21-12-2023 02:00,8.0037,72.5824
21-12-2023 03:00,7.5835,76.7357
21-12-2023 04:00,8.2061,81.4864
21-12-2023 05:00,8.3176,76.6552
21-12-2023 06:00,7.5318,81.815
21-12-2023 07:00,6.6499,85.2944
21-12-2023 08:00,7.2296,87.6892
21-12-2023 09:00,7.4688,83.5947
21-12-2023 10:00,7.5276,84.9405
21-12-2023 11:00,6.9473,80.6049
21-12-2023 12:00,7.6527,81.273
21-12-2023 13:00,7.2363,75.5943
21-12-2023 14:00,6.6137,80.9217
21-12-2023 15:00,5.5943,91.9293
21-12-2023 16:00,6.4127,88.385
21-12-2023 17:00,6.0824,92.9659
21-12-2023 18:00,5.6386,81.3363
21-12-2023 19:00,6.4549,80.1051
21-12-2023 20:00,6.5474,84.6044
21-12-2023 21:00,7.0783,88.6623
21-12-2023 22:00,6.8525,91.8624
21-12-2023 23:00,6.3951,85.4664
22-12-2023 00:00,6.8559,81.8201
22-12-2023 01:00,7.1484,81.8591
22-12-2023 02:00,7.4955,85.7826
22-12-2023 03:00,6.8291,89.9606
22-12-2023 04:00,6.1561,93.6573
22-12-2023 05:00,6.1459,96.6668
22-12-2023 06:00,6.3264,92.8777
22-12-2023 07:00,6.8601,92.5194
22-12-2023 08:00,6.7228,95.0531
22-12-2023 09:00,7.1904,103.3652
22-12-2023 10:00,7.3069,96.5378
22-12-2023 11:00,7.5405,92.3256
22-12-2023 12:00,6.1366,104.1486
22-12-2023 13:00,7.1111,101.5897
22-12-2023 14:00,8.0836,94.5235
22-12-2023 15:00,8.4591,90.6303
22-12-2023 16:00,8.0141,94.5279
22-12-2023 17:00,7.4635,93.4928
22-12-2023 18:00,7.6148,92.3554
22-12-2023 19:00,8.1899,92.6956
22-12-2023 20:00,7.6646,91.5307
22-12-2023 21:00,8.7205,95.1042
22-12-2023 22:00,8.3294,86.9718
22-12-2023 23:00,8.2347,80.4342
23-12-2023 00:00,8.5777,77.8567
23-12-2023 01:00,7.7117,77.0035
23-12-2023 02:00,8.0445,76.2688
23-12-2023 03:00,6.7135,75.8845
23-12-2023 04:00,7.2757,81.0426
23-12-2023 05:00,6.8616,80.6413
23-12-2023 06:00,6.9502,76.4289
23-12-2023 07:00,6.3505,111.0488
23-12-2023 08:00,7.4013,77.8879
23-12-2023 09:00,6.2795,91.1673
23-12-2023 10:00,6.8322,78.2702
23-12-2023 11:00,5.2705,88.7031
23-12-2023 12:00,5.4042,83.5106
23-12-2023 13:00,6.683,82.0837
23-12-2023 14:00,6.5832,80.7624
23-12-2023 15:00,6.7605,91.1756
23-12-2023 16:00,6.3022,87.7293
23-12-2023 17:00,6.5012,92.9363
23-12-2023 18:00,6.1403,95.4797
23-12-2023 19:00,7.1183,88.9698
23-12-2023 20:00,7.6183,93.1047
23-12-2023 21:00,7.9495,85.3333
23-12-2023 22:00,7.6069,84.47
23-12-2023 23:00,6.9114,78.7356
24-12-2023 00:00,6.9308,78.9659
24-12-2023 01:00,7.4082,85.3626
24-12-2023 02:00,6.6435,82.3976
24-12-2023 03:00,7.567,86.6872
24-12-2023 04:00,7.3167,90.2285
24-12-2023 05:00,6.7317,90.8426
24-12-2023 06:00,6.1463,89.973
24-12-2023 07:00,5.3824,83.4007
24-12-2023 08:00,5.2898,97.076
24-12-2023 09:00,5.2767,88.9582
24-12-2023 10:00,5.8268,87.7952
24-12-2023 11:00,7.223,96.3113
24-12-2023 12:00,6.3673,95.1375
24-12-2023 13:00,6.3496,93.5197
24-12-2023 14:00,5.5488,94.3026
24-12-2023 15:00,5.0108,95.5753
24-12-2023 16:00,4.6976,94.8785
24-12-2023 17:00,5.2468,84.82
24-12-2023 18:00,5.8739,84.0868
24-12-2023 19:00,6.3721,81.8005
24-12-2023 20:00,5.8376,85.7719
24-12-2023 21:00,6.592,78.3131
24-12-2023 22:00,6.9354,74.4072
24-12-2023 23:00,6.8888,75.4345
25-12-2023 00:00,6.8467,78.4145
25-12-2023 01:00,6.8153,79.4701
25-12-2023 02:00,8.1959,75.5404
25-12-2023 03:00,7.5511,78.1891
25-12-2023 04:00,6.5663,79.6919
25-12-2023 05:00,7.3598,75.9198
25-12-2023 06:00,7.288,86.0684
25-12-2023 07:00,7.5561,92.07
25-12-2023 08:00,8.259,83.2392
25-12-2023 09:00,7.348,88.2194
25-12-2023 10:00,6.2416,90.5989
25-12-2023 11:00,7.5892,83.1518
25-12-2023 12:00,8.8155,66.6209
25-12-2023 13:00,8.6758,65.3083
25-12-2023 14:00,9.1873,68.0929
25-12-2023 15:00,8.2215,74.5487
25-12-2023 16:00,5.9826,81.2678
25-12-2023 17:00,7.1154,78.8348
25-12-2023 18:00,5.8523,83.248
25-12-2023 19:00,6.4162,77.5926
25-12-2023 20:00,5.8352,83.7211
25-12-2023 21:00,5.7505,82.7255
25-12-2023 22:00,6.1921,80.0796
25-12-2023 23:00,6.0537,72.2197
26-12-2023 00:00,6.0048,82.9131
26-12-2023 01:00,5.9637,80.2804
26-12-2023 02:00,6.5725,85.4809
26-12-2023 03:00,6.5888,87.3343
26-12-2023 04:00,5.5343,85.1112
26-12-2023 05:00,5.1682,91.8905
26-12-2023 06:00,5.0395,92.4667
26-12-2023 07:00,4.5199,93.3743
26-12-2023 08:00,4.5616,95.3774
26-12-2023 09:00,4.4788,84.5169
26-12-2023 10:00,5.4992,94.2705
26-12-2023 11:00,4.8904,94.9673
26-12-2023 12:00,4.878,89.8716
26-12-2023 13:00,6.1099,90.7816
26-12-2023 14:00,5.9175,91.4619
26-12-2023 15:00,5.9064,100.0771
26-12-2023 16:00,6.0059,96.9536
26-12-2023 17:00,5.2079,94.8835
26-12-2023 18:00,5.3068,92.4836
26-12-2023 19:00,5.3025,96.5888
26-12-2023 20:00,6.0775,93.9684
26-12-2023 21:00,5.9068,99.6094
26-12-2023 22:00,5.9367,81.1474
26-12-2023 23:00,6.3237,73.4187
27-12-2023 00:00,6.0461,79.6889
27-12-2023 01:00,6.5069,68.7348
27-12-2023 02:00,6.4686,85.5809
27-12-2023 03:00,6.0882,87.3703
27-12-2023 04:00,5.8764,85.1061
27-12-2023 05:00,6.1077,90.6241
27-12-2023 06:00,4.9189,87.9694
27-12-2023 07:00,6.0476,83.5016
27-12-2023 08:00,5.5048,82.5113
27-12-2023 09:00,6.0889,76.1305
27-12-2023 10:00,5.7884,79.855
27-12-2023 11:00,5.7013,81.2599
27-12-2023 12:00,5.2497,81.1099
27-12-2023 13:00,4.718,88.7823
27-12-2023 14:00,4.9875,80.7327
27-12-2023 15:00,5.12,83.1195
27-12-2023 16:00,5.7832,79.772
27-12-2023 17:00,5.3091,84.1228
27-12-2023 18:00,5.3568,83.8965
27-12-2023 19:00,5.6137,83.1759
27-12-2023 20:00,6.5007,77.0724
27-12-2023 21:00,6.1996,80.7855
27-12-2023 22:00,6.8716,73.165
27-12-2023 23:00,7.0849,75.851
